LIVELLO;COD. FORNITORE;DESC. FORNITORE;LOCALITA';PROVINCIA;NAZIONE;DDT CONSEGNA;DATA ENTRATA MERCE;Codice EAN;COD. PRODOTTO;DESC. PRODOTTO;LOTTO IN ENTRATA;LOTTO IN USCITA;QTA';UM;OLIO - Lotto;50000122;50000123;50000124;50000125;50000126;50000127;50000128;50000129;50000130;50000131;50000133;50000134;50000135;50000136;ANACARRE;CAPOREPA;CENTEFRO;CENTRERE;CERTIFIC;CONFADES;CONFEFRO;CONFPESO;CONFRETI;CONFTAPP;CSLEESIG;CTAPPATU;FLACINCH;FUNZBOTT;FUNZETIC;FUNZSOFF;IDONIGEN;LAVANAST;LOTTO;PULIFBOT;RISPINDI;RUBINETT;SCADENZA;SCHEMPAL;SMALCART;SMALPLAS
1;0110002450;D' ARIES SRL;LUCERA;FG;IT;21;20230111;;000000000000007070;OLIVE BIO VERDI INTERE SANT 'AGOSTINO;0000063353;VITO21;1.560;KG;;;;;;;;;;;;;;;;;;;;;;;;;;;;;;;;;;;;;;;;;
2;;;;;;;20230420;;000000000000008070;OLIVE BIO VERDI INTERE SANT 'AGOSTINO;0000064236;0000063353;370;KG;;     4.30;;    6.5;;;;;;   3.8;     0;75000152801;0; 3.2;CONF;;;;;;;;;;;;;;;;;;;;;;;;;;
3;;;;;;;20230420;8005510009996;495.94.08.0;Olive Bio Verdi Intere S.Agost.gr.150x8;L1059615;0000064236;64,800;KG;0000063015;;;;;;;;;;;;;;;;;;;;;;;;;;;;;;;;;COER;;;;COER;;;
1;0110002450;D' ARIES SRL;LUCERA;FG;IT;21;20230111;;000000000000007070;OLIVE BIO VERDI INTERE SANT 'AGOSTINO;0000063353;VITO21;1.560;KG;;;;;;;;;;;;;;;;;;;;;;;;;;;;;;;;;;;;;;;;;
2;;;;;;;20230420;;000000000000008070;OLIVE BIO VERDI INTERE SANT 'AGOSTINO;0000064236;0000063353;370;KG;;     4.30;;    6.5;;;;;;   3.8;     0;75000152801;0; 3.2;CONF;;;;;;;;;;;;;;;;;;;;;;;;;;
3;;;;;;;20230420;8005510009996;495.94.08.175;Olive Bio Verdi Intere S.Agost.gr.150x8;L18.04.23;0000064236;288;KG;0000063015;;;;;;;;;;;;;;;;;;;;;;;;;;;;;;;;;COER;;;;COER;;;
1;;;;;;;00000000;;000000000000007072;OLIVE BIO NERE INTERE PERANZANA;0000063116;0000062385;3.750;KG;;;;;;;;;;;;;;;;;;;;;;;;;;;;;;;;;;;;;;;;;
1;0110003023;OLEIFICIO BIOS S.R.L.S.;TORREMAGGIORE;FG;IT;46;20221110;;000000000000007072;OLIVE BIO NERE INTERE PERANZANA;0000062385;01/09/11/22;13.200;KG;;;;;;;;;;;;;;;;;;;;;;;;;;;;;;;;;;;;;;;;;
2;;;;;;;20230420;;000000000000008072;OLIVE BIO NERE INTERE PERANZANA;0000064216;0000063116;450;KG;;       4.3;;      10;;;;;;      3.8;0      0.00;75000152801;0;5;CONF;;;;;;;;;;;;;;;;;;;;;;;;;;
3;;;;;;;20230420;8005510010015;496.94.08.0;Olive Bio Nere Intere Peranzana gr.150x8;L1059617;0000064216;34,800;KG;0000063015;;;;;;;;;;;;;;;;;;;;;;;;;;;;;;;;;COER;;;;COER;;;
1;;;;;;;00000000;;000000000000007072;OLIVE BIO NERE INTERE PERANZANA;0000063116;0000062385;3.750;KG;;;;;;;;;;;;;;;;;;;;;;;;;;;;;;;;;;;;;;;;;
1;0110003023;OLEIFICIO BIOS S.R.L.S.;TORREMAGGIORE;FG;IT;46;20221110;;000000000000007072;OLIVE BIO NERE INTERE PERANZANA;0000062385;01/09/11/22;13.200;KG;;;;;;;;;;;;;;;;;;;;;;;;;;;;;;;;;;;;;;;;;
2;;;;;;;20230420;;000000000000008072;OLIVE BIO NERE INTERE PERANZANA;0000064216;0000063116;450;KG;;       4.3;;      10;;;;;;      3.8;0      0.00;75000152801;0;5;CONF;;;;;;;;;;;;;;;;;;;;;;;;;;
3;;;;;;;20230420;8005510010015;496.94.08.175;Olive Bio Nere Intere Peranzana gr.150x8;L18.04.23;0000064216;284,400;KG;0000063015;;;;;;;;;;;;;;;;;;;;;;;;;;;;;;;;;COER;;;;COER;;;
