LIVELLO;COD. FORNITORE;DESC. FORNITORE;LOCALITA';PROVINCIA;NAZIONE;DDT CONSEGNA;DATA ENTRATA MERCE;Codice EAN;COD. PRODOTTO;DESC. PRODOTTO;LOTTO IN ENTRATA;LOTTO IN USCITA;QTA';UM;OLIO - Lotto;50000122;50000123;50000124;50000125;50000126;50000127;50000128;50000129;50000130;50000131;50000133;50000134;50000135;50000136;50000137;50000138;50000139;50000140;50000141;50000142;ANACARRE;CAPOREPA;CENTEFRO;CENTRERE;CERTIFIC;CONFADES;CONFEFRO;CONFPESO;CONFRETI;CONFTAPP;CSLEESIG;CTAPPATU;FLACINCH;FUNZBOTT;FUNZETIC;FUNZSOFF;IDONIGEN;LAVANAST;LOTTO;PULIFBOT
1;110003023;OLEIFICIO BIOS S.R.L.S.;TORREMAGGIORE;FG;IT;46;20221110;;7072;OLIVE BIO NERE INTERE PERANZANA;62385;01/09/11/22;13.200;KG;;;;;;;;;;;;;;;;;;;;;;;;;;;;;;;;;;;;;;;;;
1;;;;;;;0;;7072;OLIVE BIO NERE INTERE PERANZANA;63116;62385;3.750;KG;;;;;;;;;;;;;;;;;;;;;;;;;;;;;;;;;;;;;;;;;
1;110002450;D' ARIES SRL;LUCERA;FG;IT;312;20220805;;9072;OLIVE BIO NERE INTERE PERANZANA;AZ21SCIA;AZ21SCIA;3.120;KG;;;;;;;;;;;;;;;;;;;;;;;;;;;;;;;;;;;;;;;;;
2;;;;;;;20230105;;8072;OLIVE BIO NERE INTERE PERANZANA;63201;63116;860;KG;;4.300;;10.000;;;;;;3,3;0;7500152801;;5;CONF;;;;;;;;;;;;;;;;;;;;;;;;;;
2;;;;;;;20230105;;8072;OLIVE BIO NERE INTERE PERANZANA;63201;AZ21SCIA;860;KG;;4.300;;10.000;;;;;;3,3;0;7500152801;;5;CONF;;;;;;;;;;;;;;;;;;;;;;;;;;
3;;;;;;;20230105;8,01E+12;496.94.08.0;Olive Bio Nere Intere Peranzana gr.150x8;L1058162;63201;242;CRT;62280;;;;;;;;;;;;;;;;;;;;;;;;;;;;;;;;;;;;;;;;
1;110003023;OLEIFICIO BIOS S.R.L.S.;TORREMAGGIORE;FG;IT;46;20221110;;7072;OLIVE BIO NERE INTERE PERANZANA;62385;01/09/11/22;13.200;KG;;;;;;;;;;;;;;;;;;;;;;;;;;;;;;;;;;;;;;;;;
1;;;;;;;0;;7072;OLIVE BIO NERE INTERE PERANZANA;63116;62385;3.750;KG;;;;;;;;;;;;;;;;;;;;;;;;;;;;;;;;;;;;;;;;;
1;110002450;D' ARIES SRL;LUCERA;FG;IT;312;20220805;;9072;OLIVE BIO NERE INTERE PERANZANA;AZ21SCIA;AZ21SCIA;3.120;KG;;;;;;;;;;;;;;;;;;;;;;;;;;;;;;;;;;;;;;;;;
2;;;;;;;20230104;;8072;OLIVE BIO NERE INTERE PERANZANA;63200;63116;860;KG;;4.300;;10.000;;;;;;3,3;0;7500152801;0;5;CONF;;;;;;;;;;;;;;;;;;;;;;;;;;
2;;;;;;;20230105;;8072;OLIVE BIO NERE INTERE PERANZANA;63200;AZ21SCIA;860;KG;;4.300;;10.000;;;;;;3,3;0;7500152801;;5;CONF;;;;;;;;;;;;;;;;;;;;;;;;;;
3;;;;;;;20230104;8,01E+12;496.94.08.175;Olive Bio Nere Intere Peranzana gr.150x8;L03.01.23;63200;240;CRT;62280;;;;;;;;;;;;;;;;;;;;;;;;;;;;;;;;;;;;;;;;
1;110003023;OLEIFICIO BIOS S.R.L.S.;TORREMAGGIORE;FG;IT;46;20221110;;7072;OLIVE BIO NERE INTERE PERANZANA;62385;01/09/11/22;13.200;KG;;;;;;;;;;;;;;;;;;;;;;;;;;;;;;;;;;;;;;;;;
1;;;;;;;0;;7072;OLIVE BIO NERE INTERE PERANZANA;63116;62385;3.750;KG;;;;;;;;;;;;;;;;;;;;;;;;;;;;;;;;;;;;;;;;;
1;110002450;D' ARIES SRL;LUCERA;FG;IT;312;20220805;;9072;OLIVE BIO NERE INTERE PERANZANA;AZ21SCIA;AZ21SCIA;3.120;KG;;;;;;;;;;;;;;;;;;;;;;;;;;;;;;;;;;;;;;;;;
2;;;;;;;20230104;;8072;OLIVE BIO NERE INTERE PERANZANA;63200;63116;860;KG;;4.300;;10.000;;;;;;3,3;0;7500152801;0;5;CONF;;;;;;;;;;;;;;;;;;;;;;;;;;
2;;;;;;;20230105;;8072;OLIVE BIO NERE INTERE PERANZANA;63200;AZ21SCIA;860;KG;;4.300;;10.000;;;;;;3,3;0;7500152801;;5;CONF;;;;;;;;;;;;;;;;;;;;;;;;;;
3;;;;;;;20230104;8,01E+12;496.94.08.195;Olive Bio Nere Intere Peranzana gr.150x8;0023A;63200;351;CRT;62280;;;;;;;;;;;;;;;;;;;;;;1;;;;CONF;;;;;;;;;;;;;COER;
1;110003023;OLEIFICIO BIOS S.R.L.S.;TORREMAGGIORE;FG;IT;46;20221110;;7072;OLIVE BIO NERE INTERE PERANZANA;62385;01/09/11/22;13.200;KG;;;;;;;;;;;;;;;;;;;;;;;;;;;;;;;;;;;;;;;;;
1;;;;;;;0;;7072;OLIVE BIO NERE INTERE PERANZANA;63116;62385;3.750;KG;;;;;;;;;;;;;;;;;;;;;;;;;;;;;;;;;;;;;;;;;
1;110002450;D' ARIES SRL;LUCERA;FG;IT;312;20220805;;9072;OLIVE BIO NERE INTERE PERANZANA;AZ21SCIA;AZ21SCIA;3.120;KG;;;;;;;;;;;;;;;;;;;;;;;;;;;;;;;;;;;;;;;;;
2;;;;;;;20230105;;8072;OLIVE BIO NERE INTERE PERANZANA;63201;63116;860;KG;;4.300;;10.000;;;;;;3,3;0;7500152801;;5;CONF;;;;;;;;;;;;;;;;;;;;;;;;;;
2;;;;;;;20230105;;8072;OLIVE BIO NERE INTERE PERANZANA;63201;AZ21SCIA;860;KG;;4.300;;10.000;;;;;;3,3;0;7500152801;;5;CONF;;;;;;;;;;;;;;;;;;;;;;;;;;
3;;;;;;;20230105;8,01E+12;496.94.08.195;Olive Bio Nere Intere Peranzana gr.150x8;33;63201;375;CRT;62280;;;;;;;;;;;;;;;;;;;;;;5;0;;62280;CONF;CONF;;;;;;;;;;;;COER;
1;110002450;D' ARIES SRL;LUCERA;FG;IT;424;20221114;;7070;OLIVE BIO VERDI INTERE SANT 'AGOSTINO;62415;VITO21;860;KG;;;;;;;;;;;;;;;;;;;;;;;;;;;;;;;;;;;;;;;;;
2;;;;;;;20230113;;8070;OLIVE BIO VERDI INTERE SANT 'AGOSTINO;63325;62415;860;KG;;4.050;;6.200;;;;;;3.8;0;7500152801;0;3.5;CONF;;;;;;;;;;;;;;;;;;;;;;;;;;
3;;;;;;;20230113;8,01E+12;495.94.08.195;Olive Bio Verdi Intere S.Agost.gr.150x8;0113A;63325;702;CRT;62280;;;;;;;;;;;;;;;;;;;;;;;;;;;;;;;;;;;;;;;;
1;110002450;D' ARIES SRL;LUCERA;FG;IT;424;20221114;;7070;OLIVE BIO VERDI INTERE SANT 'AGOSTINO;62415;VITO21;470;KG;;;;;;;;;;;;;;;;;;;;;;;;;;;;;;;;;;;;;;;;;
2;;;;;;;20230116;;8070;OLIVE BIO VERDI INTERE SANT 'AGOSTINO;63335;62415;390;KG;;4.050;;6.200;;;;;;3,8;0;7500152801;0;3;;;;;;;;;;;;;;;;;;;;;;;;;;;
3;;;;;;;20230116;8,01E+12;495.94.08.195;Olive Bio Verdi Intere S.Agost.gr.150x8;0123A;63335;313;CRT;63015;;;;;;;;;;;;;;;;;;;;;;;;;;;;;;;;;;;;;;;;
1;110003023;OLEIFICIO BIOS S.R.L.S.;TORREMAGGIORE;FG;IT;46;20221110;;7072;OLIVE BIO NERE INTERE PERANZANA;62385;01/09/11/22;13.200;KG;;;;;;;;;;;;;;;;;;;;;;;;;;;;;;;;;;;;;;;;;
1;;;;;;;0;;7072;OLIVE BIO NERE INTERE PERANZANA;63116;62385;3.750;KG;;;;;;;;;;;;;;;;;;;;;;;;;;;;;;;;;;;;;;;;;
2;;;;;;;20230120;;8072;OLIVE BIO NERE INTERE PERANZANA;63393;63116;260;KG;;4.2;;9;;;;;;3.6;0;7500152801;40221;4;CONF;;;;;;;;;;;;;;;;;;;;;;;;;;
3;;;;;;;20230120;8,01E+12;496.94.08.0;Olive Bio Nere Intere Peranzana gr.150x8;L1058340;63393;53;CRT;63015;;;;;;;;;;;;;;;;;;;;;;;;;;;;;;;;;;;;;;;COER;
1;110003023;OLEIFICIO BIOS S.R.L.S.;TORREMAGGIORE;FG;IT;46;20221110;;7072;OLIVE BIO NERE INTERE PERANZANA;62385;01/09/11/22;13.200;KG;;;;;;;;;;;;;;;;;;;;;;;;;;;;;;;;;;;;;;;;;
1;;;;;;;0;;7072;OLIVE BIO NERE INTERE PERANZANA;63116;62385;3.750;KG;;;;;;;;;;;;;;;;;;;;;;;;;;;;;;;;;;;;;;;;;
2;;;;;;;20230120;;8072;OLIVE BIO NERE INTERE PERANZANA;63393;63116;260;KG;;4.2;;9;;;;;;3.6;0;7500152801;40221;4;CONF;;;;;;;;;;;;;;;;;;;;;;;;;;
3;;;;;;;20230120;8,01E+12;496.94.08.195;Olive Bio Nere Intere Peranzana gr.150x8;0183A;63393;131;CRT;63015;;;;;;;;;;;;;;;;;;;;;;;;;;;;;;;;;;;;;;;;
1;110002450;D' ARIES SRL;LUCERA;FG;IT;21;20230111;;7071;OLIVE BIO NERE DENOCCIOLATE LECCINO;63351;AZ22BO;1.080;KG;;;;;;;;;;;;;;;;;;;;;;;;;;;;;;;;;;;;;;;;;
2;;;;;;;20230117;;8071;OLIVE BIO NERE DENOCCIOLATE LECCINO;63392;63351;840;KG;;4.3;;6.4;;;;;;3.6;2;7500152801;40221;4;CONF;;;;;;;;;;;;;;;;;;;;;;;;;;
3;;;;;;;20230117;8,01E+12;497.94.08.0;Olive Bio Nere Denocc. Leccino gr.150x8;L1058259;63392;302;CRT;63015;;;;;;;;;;;;;;;;;;;;;;;;;;;;;;;;;;;;;;;COER;
1;110003300;LA CUPA SOC.COOP.AGR.;SCORRANO;LE;IT;1;20230103;;7071;OLIVE BIO NERE DENOCCIOLATE LECCINO;63236;F311;11.040;KG;;;;;;;;;;;;;;;;;;;;;;;;;;;;;;;;;;;;;;;;;
2;;;;;;;20230116;;8071;OLIVE BIO NERE DENOCCIOLATE LECCINO;63377;63236;120;KG;;4,5;;11;;;;;;3,8;0;7500152801;0;4;CONF;;;;;;;;;;;;;;;;;;;;;;;;;;
3;;;;;;;20230116;8,01E+12;497.94.08.0;Olive Bio Nere Denocc. Leccino gr.150x8;L1058289;63377;97;CRT;63015;;;;;;;;;;;;;;;;;;;;;;;;;;;;;;;;;;;;;;;;
1;110002450;D' ARIES SRL;LUCERA;FG;IT;458;20221125;;7071;OLIVE BIO NERE DENOCCIOLATE LECCINO;62587;AZ21BO;960;KG;;;;;;;;;;;;;;;;;;;;;;;;;;;;;;;;;;;;;;;;;
1;110002450;D' ARIES SRL;LUCERA;FG;IT;458;20221125;;7071;OLIVE BIO NERE DENOCCIOLATE LECCINO;62589;AZ21TR;1.440;KG;;;;;;;;;;;;;;;;;;;;;;;;;;;;;;;;;;;;;;;;;
2;;;;;;;20230111;;8071;OLIVE BIO NERE DENOCCIOLATE LECCINO;63321;62587;360;KG;;4.193;;7.734;;;;;;3.8;3.7;7500152801;0;3.7;CONF;;;;;;;;;;;;;;;;;;;;;;;;;;
2;;;;;;;20230111;;8071;OLIVE BIO NERE DENOCCIOLATE LECCINO;63321;62589;360;KG;;4.193;;7.734;;;;;;3.8;3.7;7500152801;0;3.7;CONF;;;;;;;;;;;;;;;;;;;;;;;;;;
3;;;;;;;20230111;8,01E+12;497.94.08.195;Olive Bio Nere Denocc. Leccino gr.150x8;0103A;63321;281;CRT;62280;;;;;;;;;;;;;;;;;;;;;;;;;;;;;;;;;;;;;;;COER;
1;110002450;D' ARIES SRL;LUCERA;FG;IT;458;20221125;;7071;OLIVE BIO NERE DENOCCIOLATE LECCINO;62587;AZ21BO;960;KG;;;;;;;;;;;;;;;;;;;;;;;;;;;;;;;;;;;;;;;;;
1;110002450;D' ARIES SRL;LUCERA;FG;IT;21;20230111;;7071;OLIVE BIO NERE DENOCCIOLATE LECCINO;63351;AZ22BO;1.080;KG;;;;;;;;;;;;;;;;;;;;;;;;;;;;;;;;;;;;;;;;;
2;;;;;;;20230116;;8071;OLIVE BIO NERE DENOCCIOLATE LECCINO;63376;62587;360;KG;;4,3;;6,8;;;;;;3,8;2;7500152801;40221;4,5;CONF;;;;;;;;;;;;;;;;;;;;;;;;;;
2;;;;;;;20230116;;8071;OLIVE BIO NERE DENOCCIOLATE LECCINO;63376;63351;360;KG;;4,3;;6,8;;;;;;3,8;2;7500152801;40221;4,5;CONF;;;;;;;;;;;;;;;;;;;;;;;;;;
3;;;;;;;20230116;8,01E+12;497.94.08.195;Olive Bio Nere Denocc. Leccino gr.150x8;0123A;63376;271;CRT;63015;;;;;;;;;;;;;;;;;;;;;;;;;;;;;;;;;;;;;;;;
1;110002450;D' ARIES SRL;LUCERA;FG;IT;21;20230111;;7071;OLIVE BIO NERE DENOCCIOLATE LECCINO;63351;AZ22BO;1.080;KG;;;;;;;;;;;;;;;;;;;;;;;;;;;;;;;;;;;;;;;;;
2;;;;;;;20230117;;8071;OLIVE BIO NERE DENOCCIOLATE LECCINO;63392;63351;840;KG;;4.3;;6.4;;;;;;3.6;2;7500152801;40221;4;CONF;;;;;;;;;;;;;;;;;;;;;;;;;;
3;;;;;;;20230117;8,01E+12;497.94.08.195;Olive Bio Nere Denocc. Leccino gr.150x8;0153A;63392;303;CRT;63015;;;;;;;;;;;;;;;;;;;;;;;;;;;;;;;;;;;;;;;;
1;110002450;D' ARIES SRL;LUCERA;FG;IT;458;20221125;;7073;OLIVE BIO VERDE DENOC.BELLA DI CERIGNOLA;62593;SAP22DP;3480;KG;;;;;;;;;;;;;;;;;;;;;;;;;;;;;;;;;;;;;;;;;
2;;;;;;;20230111;;8073;OLIVE BIO VERDE DENOC.BELLA DI CERIGNOLA;63334;62593;960;KG;;4.350;;7.450;;;;;;3,8;0;7500152801;0;3,8;CONF;;;;;;;;;;;;;;;;;;;;;;;;;;
2;;;;;;;20230111;;8073;OLIVE BIO VERDE DENOC.BELLA DI CERIGNOLA;63323;62593;480;KG;;4.375;;7.575;;;;;;3.8;       0.000;7500152801;0;3.9;CONF;;;;;;;;;;;;;;;;;;;;;;;;;;
3;;;;;;;20230111;8,01E+12;498.94.08.195;Olive Bio Verde Denoc.B.d.Cerig.gr.150x8;103;63334;760;CRT;62280;;;;;;;;;;;;;;;;;;;;;;;;;;;;;;;;;;;;;;;COER;
3;;;;;;;20230111;8,01E+12;498.94.08.195;Olive Bio Verde Denoc.B.d.Cerig.gr.150x8;103;63323;383;CRT;62280;;;;;;;;;;;;;;;;;;;;;;;;;;;;;;;;;;;;;;;COER;
1;110002450;D' ARIES SRL;LUCERA;FG;IT;458;20221125;;7073;OLIVE BIO VERDE DENOC.BELLA DI CERIGNOLA;62593;SAP22DP;3480;KG;;;;;;;;;;;;;;;;;;;;;;;;;;;;;;;;;;;;;;;;;
2;;;;;;;20230112;;8073;OLIVE BIO VERDE DENOC.BELLA DI CERIGNOLA;63334;62593;960;KG;;4.350;;7.450;;;;;;3,8;0;7500152801;0;3,8;CONF;;;;;;;;;;;;;;;;;;;;;;;;;;
2;;;;;;;20230112;;8073;OLIVE BIO VERDE DENOC.BELLA DI CERIGNOLA;63323;62593;480;KG;;4.375;;7.575;;;;;;3.8;       0.000;7500152801;0;3.9;CONF;;;;;;;;;;;;;;;;;;;;;;;;;;
3;;;;;;;20230112;8,01E+12;498.94.08.195;Olive Bio Verde Denoc.B.d.Cerig.gr.150x8;103;63334;760;CRT;62280;;;;;;;;;;;;;;;;;;;;;;;;;;;;;;;;;;;;;;;COER;
3;;;;;;;20230112;8,01E+12;498.94.08.195;Olive Bio Verde Denoc.B.d.Cerig.gr.150x8;103;63323;383;CRT;62280;;;;;;;;;;;;;;;;;;;;;;;;;;;;;;;;;;;;;;;COER;
1;110002450;D' ARIES SRL;LUCERA;FG;IT;21;20230111;;7073;OLIVE BIO VERDE DENOC.BELLA DI CERIGNOLA;63352;SAP22IL;1.320;KG;;;;;;;;;;;;;;;;;;;;;;;;;;;;;;;;;;;;;;;;;
2;;;;;;;20230119;;8073;OLIVE BIO VERDE DENOC.BELLA DI CERIGNOLA;63414;63352;960;KG;;       4.30;;5.80;;;;;;3.8;0;7500152801;0;3.8;CONF;;;;;;;;;;;;;;;;;;;;;;;;;;
3;;;;;;;20230119;8,01E+12;498.94.08.195;Olive Bio Verde Denoc.B.d.Cerig.gr.150x8;173;63414;752;CRT;63015;;;;;;;;;;;;;;;;;;;;;;;;;;;;;;;;;;;;;;;COER;
1;110002450;D' ARIES SRL;LUCERA;FG;IT;21;20230111;;7073;OLIVE BIO VERDE DENOC.BELLA DI CERIGNOLA;63352;SAP22IL;1.320;KG;;;;;;;;;;;;;;;;;;;;;;;;;;;;;;;;;;;;;;;;;
2;;;;;;;20230120;;8073;OLIVE BIO VERDE DENOC.BELLA DI CERIGNOLA;63418;63352;480;KG;;4.2;;6;;;;;;3.78;0;7500152801;0;3.2;CONF;;;;;;;;;;;;;;;;;;;;;;;;;;
3;;;;;;;20230120;8,01E+12;498.94.08.195;Olive Bio Verde Denoc.B.d.Cerig.gr.150x8;183;63418;379;CRT;63015;;;;;;;;;;;;;;;;;;;;;;;;;;;;;;;;;;;;;;;COER;
