﻿Date collecte;Date embouteillage;Embouteilleur;N° Lot;Citerne;Laiterie;code prod;Identification;Volume Collecté;DLUO;DLUO-30j SAS
23/08/2022;24/08/2022;CLS;2223601;T28;Herbauges;ENCLO6000;GAEC LES ENCLOSES;3393;20/02/2023;21/01/2023
23/08/2022;24/08/2022;CLS;2223601;T28;Herbauges;TRIOL1000;GAEC LE TRIO;3393;20/02/2023;21/01/2023
