{
    "name": "Sirup batch number out",
    "flow_date": "Fabrication date",
    "actor_sender": {
        "fixed": "DE 228 256 901"
    },
    "site_sender": {
        "fixed": "B01"
    },
    "tool_sender": null,
    "product": "Code product out",
    "quantity": "Sirup quantity out",
    "actor_receiver": {
        "fixed": "DE 228 256 901"
    },
    "site_receiver": {
        "fixed": "B01"
    },
    "tool_receiver": null,
    "specification": null,
    "cf_uniqueness_first": {
        "fixed": "BIONADE"
    },
    "specific_data": {
        "Concentrate batch number": "Concentrate batch number in",
        "Sirup batch number out": "Sirup batch number out"
    },
    "csv_parameters": {
        "delimiter": ";",
        "skiprows": [
            0,
            2
        ]
    },
    "db_request_mapping": {
        "actor_sender": {
            "matching_key": "siret_number",
            "matching_table": "Actor"
        },
        "site_sender": {
            "matching_key": "internal_code",
            "owner": "actor_sender"
        },
        "tool_sender": null,
        "product": {
            "matching_key": "internal_code",
            "owner": "actor_sender"
        },
        "actor_receiver": {
            "matching_key": "siret_number",
            "matching_table": "Actor"
        },
        "site_receiver": {
            "matching_key": "internal_code",
            "owner": "actor_receiver"
        },
        "tool_receiver": null
    },
    "extra_parameters": {
        "date_format": "%d.%m.%Y"
    }
}