raison_sociale;siret_client_livre;idm;numero_bl;date_livraison;siret_site_facturation;site_facturation;quantite_livree;fournisseur;siret_fournisseur;code_article;designation_article;type_aliment;aliment;destination;mp;mg;cellulose;phosphore;code_presentation;presentation;type_conditionnement
GAEC AUX QUATRE VENTS;40877019600017;29BZQ;82136;01/04/2022;63542032600020;Tromelin Nutrition;3,28;TROMELIN NUTRITION;63542032600020;1727G99;BOXY 125;1;COMPLET;2ème Age;17;2,2;3,7;0,47;1;GR;V
GAEC AUX QUATRE VENTS;40877019600017;29BZQ;27237;10/07/2020;63542032600020;Tromelin Nutrition;3,96;TROMELIN NUTRITION;63542032600020;1727G99;BOXY 125;1;COMPLET;2ème Age;17;2,2;3,7;0,47;1;GR;V
GAEC CREN RANNOU;33920002400018;29FRC;28677;29/07/2020;63542032600020;Tromelin Nutrition;5;TROMELIN NUTRITION;63542032600020;1727G99;BOXY 125;1;COMPLET;2ème Age;17;2,2;3,7;0,47;1;GR;V
GAEC CREN RANNOU;33920002400018;29FRC;32943;12/09/2020;63542032600020;Tromelin Nutrition;6,94;TROMELIN NUTRITION;63542032600020;1727G99;BOXY 125;1;COMPLET;2ème Age;17;2,2;3,7;0,47;1;GR;V
GAEC DE KERBERS;52411447700010;29JTC;57194;07/06/2021;63542032600020;Tromelin Nutrition;2,38;TROMELIN NUTRITION;63542032600020;1725F99;GALIK 100;1;COMPLET;Truie Allaitante;16;4,7;6;0,49;2;FAR.;V
GAEC DE KERBERS;52411447700010;29JTC;46273;25/01/2021;63542032600020;Tromelin Nutrition;2,04;TROMELIN NUTRITION;63542032600020;1725F99;GALIK 100;1;COMPLET;Truie Allaitante;16;4,7;6;0,49;2;FAR.;V
GAEC AUX QUATRE VENTS;40877019600017;29WK1;25863;25/06/2020;63542032600020;Tromelin Nutrition;3;TROMELIN NUTRITION;63542032600020;2642F99;UNIQUE 25 FAR;2;COMPLEMENTAIRE;Croissance;30,5;2,3;9,2;0,69;2;FAR.;V
GAEC AUX QUATRE VENTS;40877019600017;29WK1;45849;25/01/2021;63542032600020;Tromelin Nutrition;4,02;TROMELIN NUTRITION;63542032600020;2642F99;UNIQUE 25 FAR;2;COMPLEMENTAIRE;Croissance;30,5;2,3;9,2;0,69;2;FAR.;V
GAEC DE LELLE;32576402500012;56DTX;60827;23/07/2021;63542032600020;Tromelin Nutrition;1,337;TROMELIN NUTRITION;63542032600020;3000G99;*NOYAU DOMINO PERRON;1;COMPLET;Croissance;0;0;0;0;1;GR;V
GAEC DE LELLE;32576402500012;56DTX;25657;23/06/2020;63542032600020;Tromelin Nutrition;0,693;TROMELIN NUTRITION;63542032600020;3000G99;*NOYAU DOMINO PERRON;1;COMPLET;Croissance;0;0;0;0;1;GR;V
GAEC xxxxx;32576402500012;29SJ2;24758;12/06/2020;63542032600020;Tromelin Nutrition;130,345;TROMELIN NUTRITION;63542032600020;5052G99;BLE PREST.;0;INDEFINI;Non Défini;0;0;0;0;2;FAR.;V
GAEC xxxxx;32576402500012;29SJ2;74239;28/12/2021;63542032600020;Tromelin Nutrition;140,532;TROMELIN NUTRITION;63542032600020;5052G99;BLE PREST.;0;INDEFINI;Non Défini;0;0;0;0;2;FAR.;V
GAEC yyyyy;32576402500012;29AT9;74240;28/12/2021;63542032600020;Tromelin Nutrition;-140,532;TROMELIN NUTRITION;63542032600020;5052G99;BLE PREST.;0;INDEFINI;Non Défini;0;0;0;0;2;FAR.;V
GAEC yyyyy;32576402500012;29AT9;74241;28/12/2021;63542032600020;Tromelin Nutrition;140,532;TROMELIN NUTRITION;63542032600020;5052G99;BLE PREST.;0;INDEFINI;Non Défini;0;0;0;0;2;FAR.;V
GAEC zzzzz;32576402500012;29WG1;83552;21/04/2022;63542032600020;Tromelin Nutrition;6,16;TROMELIN NUTRITION;63542032600020;5057D01;Prestation FA V/ BLE ORGE MAIS (PORC);;;;0;0;0;0;2;FAR.;V
GAEC zzzzz;32576402500012;29WG1;82194;01/04/2022;63542032600020;Tromelin Nutrition;5,76;TROMELIN NUTRITION;63542032600020;5057D01;Prestation FA V/ BLE ORGE MAIS (PORC);;;;0;0;0;0;2;FAR.;V
GAEC aaaaa;32576402500012;29SPK;83088;14/04/2022;63542032600020;Tromelin Nutrition;5,92;TROMELIN NUTRITION;63542032600020;5059D01;Prestation GR 3 V/ BLE ORGE MAIS (PORC);;;;0;0;0;0;113;GR 3;V
GAEC aaaaa;32576402500012;29SPK;33391;17/09/2020;63542032600020;Tromelin Nutrition;3,98;TROMELIN NUTRITION;63542032600020;5129G99;COLZA NT;0;INDEFINI;Non Défini;0;0;0;0;2;FAR.;V
GAEC bbbbb;32576402500012;29NT1;25656;23/06/2020;63542032600020;Tromelin Nutrition;14,64;TROMELIN NUTRITION;63542032600020;5129G99;COLZA NT;0;INDEFINI;Non Défini;0;0;0;0;2;FAR.;V
GAEC bbbbb;32576402500012;29NT1;19683;11/04/2020;63542032600020;Tromelin Nutrition;7,54;TROMELIN NUTRITION;63542032600020;5129G99;COLZA NT;0;INDEFINI;Non Défini;0;0;0;0;2;FAR.;V