﻿ref_actor_to;ref_site;ref_collection_form;ref_actor_from;ref_site;ref_product_ingredient;quantity;unit;ref_lot_d;code;collect_at;ref_cdc;hour
44341993200019;site 1;200196;33180193600013;site 1;PG;12000;U;200196;PG;25/08/2020;Sans OGM;17:00
52456225300012;site 2;200209;33180193600013;site 1;PG;8000;U;200209;PG;25/08/2020;Sans OGM;17:00
