flow_type;flux_ref;flow_date;actor_sender;site_sender;tool_sender;code_product_in;quantity_in;batch_number_in;actor_receiver;site_receiver;tool_receiver;code_product_out;quantity_out;batch_number_out;Code_fournisseur;Code_site_fournisseur
Expedition;221820005;01/07/2022;35146649500378;250;;BF064_250;26;25022170038A;35146649500394;200;;81030-10-VR;25.06;391739RE1;;
Expedition;221850060;04/07/2022;35146649500378;250;;BF064_250;26;25022170038A;35146649500394;200;;81030-10-VR;25.12;391753RE1;;
Expedition;221860010;05/07/2022;35146649500378;250;;BF064_250;26;25022185314A;35146649500394;200;;81030-10-VR;25.98;391757RE1;;
Expedition;221920029;11/07/2022;35146649500378;250;;BF064_250;26;25022185314A;35146649500394;200;;81030-10-VR;25.12;391761RE1;;
Expedition;221930018;12/07/2022;35146649500378;250;;BF064_250;26;25022185314A;35146649500394;200;;81030-10-VR;25.6;391759RE1;;
Expedition;221930049;12/07/2022;35146649500378;250;;BF064_250;14;25022185314A;35146649500394;200;;81030-10-VR;13.1;391789RE1;;
Expedition;221940032;13/07/2022;35146649500378;250;;BF064_250;26;25022194018A;35146649500394;200;;81030-10-VR;25.52;391793RE1;;
Expedition;221960008;15/07/2022;35146649500378;250;;BF064_250;26;25022194018A;35146649500394;200;;81030-10-VR;25.1;391795RE1;;
Expedition;221990023;18/07/2022;35146649500378;250;;BF064_250;26;25022194018A;35146649500394;200;;81030-10-VR;25.2;391847RE1;;
Expedition;222000006;19/07/2022;35146649500378;250;;BF064_250;16.49;25022194018A;35146649500394;200;;81030-10-VR;25.62;391849RE1;;
Expedition;222000006;19/07/2022;35146649500378;250;;BF064_250;9.51;25022198005A;35146649500394;200;;81030-10-VR;25.62;391849RE1;;
Expedition;222020015;21/07/2022;35146649500378;250;;BF064_250;26;25022198005A;35146649500394;200;;81030-10-VR;25.18;391853RE1;;
Expedition;222030010;22/07/2022;35146649500378;250;;BF064_250;26;25022198005A;35146649500394;200;;81030-10-VR;25.4;391851RE1;;
Expedition;222070014;26/07/2022;35146649500378;250;;BF064_250;26;25022198005A;35146649500394;200;;81030-10-VR;25.36;391861RE1;;
Expedition;222100047;29/07/2022;35146649500378;250;;BF064_250;7.29;25022198005A;35146649500394;200;;81030-10-VR;25.24;391865RE1;;
Expedition;222100047;29/07/2022;35146649500378;250;;BF064_250;18.71;25022203250A;35146649500394;200;;81030-10-VR;25.24;391865RE1;;
Expedition;222140000;02/08/2022;35146649500378;250;;BF064_250;26;25022203250A;35146649500394;200;;81030-10-VR;25.44;391891RE1;;
Expedition;222140006;02/08/2022;35146649500378;250;;BF064_250;26;25022203250A;35146649500394;200;;81030-10-VR;25.36;391893RE1;;
Expedition;222150000;03/08/2022;35146649500378;250;;BF064_250;26;25022203250A;35146649500394;200;;81030-10-VR;25.46;391895RE1;;
Expedition;222160010;04/08/2022;35146649500378;250;;BF064_250;16.57;25022203250A;35146649500394;200;;81030-10-VR;25.58;391897RE1;;
Expedition;222160010;04/08/2022;35146649500378;250;;BF064_250;9.43;25022214003A;35146649500394;200;;81030-10-VR;25.58;391897RE1;;
Expedition;222170005;05/08/2022;35146649500378;250;;BF064_250;26;25022214003A;35146649500394;200;;81030-10-VR;25.28;391899RE1;;
Expedition;222240013;12/08/2022;35146649500378;250;;BF064_250;26;25022214003A;35146649500394;200;;81030-10-VR;25.72;391901RE1;;
Mouture;221680066;19/06/2022;05884053 - FERMES BIO COOP;0005 - Vezelise;;BI110_250;27.46;25022159282A;35146649500378;250;;BF064_250;104.46;25022170038A;;
Mouture;221680066;19/06/2022;05884053 - FERMES BIO COOP;0005 - Vezelise;;BI110_250;30.12;25022159286A;35146649500378;250;;BF064_250;104.46;25022170038A;;
Mouture;221680066;19/06/2022;05884053 - FERMES BIO COOP;0005 - Vezelise;;BI110_250;29.78;25022159290A;35146649500378;250;;BF064_250;104.46;25022170038A;;
Mouture;221680066;19/06/2022;05930053 - UNION COOPS BIO CEREALES;0000 - Tous lieux d'enlèvements;;BI110_250;30.08;25022160118A;35146649500378;250;;BF064_250;104.46;25022170038A;;
Mouture;221680066;19/06/2022;05930053 - UNION COOPS BIO CEREALES;0005 - Guitry;;BI110_250;29.88;25022160127A;35146649500378;250;;BF064_250;104.46;25022170038A;;
Mouture;221680066;19/06/2022;05930053 - UNION COOPS BIO CEREALES;0005 - Guitry;;BI110_250;29.74;25022160140A;35146649500378;250;;BF064_250;104.46;25022170038A;;
Mouture;221680066;19/06/2022;05930053 - UNION COOPS BIO CEREALES;0000 - Tous lieux d'enlèvements;;BI110_250;28.36;25022164204A;35146649500378;250;;BF064_250;104.46;25022170038A;;
Mouture;221820078;04/07/2022;05930053 - UNION COOPS BIO CEREALES;0003 - Toury;;BI110_250;27.4;25022174156A;35146649500378;250;;BF064_250;90.27;25022185314A;;
Mouture;221820078;04/07/2022;05930053 - UNION COOPS BIO CEREALES;0003 - Toury;;BI110_250;30.46;25022174160A;35146649500378;250;;BF064_250;90.27;25022185314A;;
Mouture;221820078;04/07/2022;05930053 - UNION COOPS BIO CEREALES;0006 - Egreville;;BI110_250;30.44;25022174165A;35146649500378;250;;BF064_250;90.27;25022185314A;;
Mouture;221820078;04/07/2022;05930053 - UNION COOPS BIO CEREALES;0006 - Egreville;;BI110_250;27.9;25022174211A;35146649500378;250;;BF064_250;90.27;25022185314A;;
Mouture;221820078;04/07/2022;05930053 - UNION COOPS BIO CEREALES;0001 - Vaux le Pénil;;BI110_250;30.14;25022175071A;35146649500378;250;;BF064_250;90.27;25022185314A;;
Mouture;221820078;04/07/2022;05930053 - UNION COOPS BIO CEREALES;0001 - Vaux le Pénil;;BI110_250;29.78;25022174220A;35146649500378;250;;BF064_250;90.27;25022185314A;;
Mouture;221820078;04/07/2022;05884053 - FERMES BIO COOP;0005 - Vezelise;;BI110_250;27.68;25022187212A;35146649500378;250;;BF064_250;90.27;25022185314A;;
Mouture;221820078;04/07/2022;05884053 - FERMES BIO COOP;0005 - Vezelise;;BI110_250;29.98;25022187214A;35146649500378;250;;BF064_250;90.27;25022185314A;;
Mouture;221820078;04/07/2022;05884053 - FERMES BIO COOP;0005 - Vezelise;;BI110_250;29.84;25022187225A;35146649500378;250;;BF064_250;90.27;25022185314A;;
Mouture;221820078;04/07/2022;05884053 - FERMES BIO COOP;0005 - Vezelise;;BI110_250;29.98;25022187242A;35146649500378;250;;BF064_250;90.27;25022185314A;;
Mouture;221820078;04/07/2022;05884053 - FERMES BIO COOP;0005 - Vezelise;;BI110_250;28;25022188182A;35146649500378;250;;BF064_250;90.27;25022185314A;;
Mouture;221820078;04/07/2022;05884053 - FERMES BIO COOP;0005 - Vezelise;;BI110_250;27.76;25022194139A;35146649500378;250;;BF064_250;90.27;25022185314A;;
Mouture;221820078;04/07/2022;05884053 - FERMES BIO COOP;0005 - Vezelise;;BI110_250;29.84;25022194150A;35146649500378;250;;BF064_250;90.27;25022185314A;;
Mouture;221820078;04/07/2022;05884053 - FERMES BIO COOP;0005 - Vezelise;;BI110_250;30.16;25022194160A;35146649500378;250;;BF064_250;90.27;25022185314A;;
Mouture;221820078;04/07/2022;05884053 - FERMES BIO COOP;0005 - Vezelise;;BI110_250;28.44;25022194172A;35146649500378;250;;BF064_250;90.27;25022185314A;;
Mouture;221820078;04/07/2022;05884053 - FERMES BIO COOP;0005 - Vezelise;;BI110_250;30.3;25022194189A;35146649500378;250;;BF064_250;90.27;25022185314A;;
Mouture;221820078;04/07/2022;05884053 - FERMES BIO COOP;0005 - Vezelise;;BI110_250;27.88;25022196155A;35146649500378;250;;BF064_250;90.27;25022185314A;;
Mouture;221820078;04/07/2022;05884053 - FERMES BIO COOP;0005 - Vezelise;;BI110_250;28.26;25022201226A;35146649500378;250;;BF064_250;90.27;25022185314A;;
Mouture;221820078;04/07/2022;05884053 - FERMES BIO COOP;0005 - Vezelise;;BI110_250;30.3;25022201250A;35146649500378;250;;BF064_250;90.27;25022185314A;;
Mouture;221820078;04/07/2022;05930053 - UNION COOPS BIO CEREALES;0001 - Vaux le Pénil;;BI110_250;30.16;25022201243A;35146649500378;250;;BF064_250;90.27;25022185314A;;
Mouture;221820078;04/07/2022;05884053 - FERMES BIO COOP;0005 - Vezelise;;BI110_250;30.38;25022201263A;35146649500378;250;;BF064_250;90.27;25022185314A;;
Mouture;221820078;04/07/2022;05930053 - UNION COOPS BIO CEREALES;0001 - Vaux le Pénil;;BI110_250;28.14;25022202121A;35146649500378;250;;BF064_250;90.27;25022185314A;;
Mouture;221920041;13/07/2022;05930053 - UNION COOPS BIO CEREALES;0003 - Toury;;BI110_250;27.4;25022174156A;35146649500378;250;;BF064_250;95.99;25022194018A;;
Mouture;221920041;13/07/2022;05930053 - UNION COOPS BIO CEREALES;0003 - Toury;;BI110_250;30.46;25022174160A;35146649500378;250;;BF064_250;95.99;25022194018A;;
Mouture;221920041;13/07/2022;05930053 - UNION COOPS BIO CEREALES;0006 - Egreville;;BI110_250;30.44;25022174165A;35146649500378;250;;BF064_250;95.99;25022194018A;;
Mouture;221920041;13/07/2022;05930053 - UNION COOPS BIO CEREALES;0006 - Egreville;;BI110_250;27.9;25022174211A;35146649500378;250;;BF064_250;95.99;25022194018A;;
Mouture;221920041;13/07/2022;05930053 - UNION COOPS BIO CEREALES;0001 - Vaux le Pénil;;BI110_250;30.14;25022175071A;35146649500378;250;;BF064_250;95.99;25022194018A;;
Mouture;221920041;13/07/2022;05930053 - UNION COOPS BIO CEREALES;0001 - Vaux le Pénil;;BI110_250;29.78;25022174220A;35146649500378;250;;BF064_250;95.99;25022194018A;;
Mouture;221920041;13/07/2022;05884053 - FERMES BIO COOP;0005 - Vezelise;;BI110_250;27.68;25022187212A;35146649500378;250;;BF064_250;95.99;25022194018A;;
Mouture;221920041;13/07/2022;05884053 - FERMES BIO COOP;0005 - Vezelise;;BI110_250;29.98;25022187214A;35146649500378;250;;BF064_250;95.99;25022194018A;;
Mouture;221920041;13/07/2022;05884053 - FERMES BIO COOP;0005 - Vezelise;;BI110_250;29.84;25022187225A;35146649500378;250;;BF064_250;95.99;25022194018A;;
Mouture;221920041;13/07/2022;05884053 - FERMES BIO COOP;0005 - Vezelise;;BI110_250;29.98;25022187242A;35146649500378;250;;BF064_250;95.99;25022194018A;;
Mouture;221920041;13/07/2022;05884053 - FERMES BIO COOP;0005 - Vezelise;;BI110_250;28;25022188182A;35146649500378;250;;BF064_250;95.99;25022194018A;;
Mouture;221920041;13/07/2022;05884053 - FERMES BIO COOP;0005 - Vezelise;;BI110_250;27.76;25022194139A;35146649500378;250;;BF064_250;95.99;25022194018A;;
Mouture;221920041;13/07/2022;05884053 - FERMES BIO COOP;0005 - Vezelise;;BI110_250;29.84;25022194150A;35146649500378;250;;BF064_250;95.99;25022194018A;;
Mouture;221920041;13/07/2022;05884053 - FERMES BIO COOP;0005 - Vezelise;;BI110_250;30.16;25022194160A;35146649500378;250;;BF064_250;95.99;25022194018A;;
Mouture;221920041;13/07/2022;05884053 - FERMES BIO COOP;0005 - Vezelise;;BI110_250;28.44;25022194172A;35146649500378;250;;BF064_250;95.99;25022194018A;;
Mouture;221920041;13/07/2022;05884053 - FERMES BIO COOP;0005 - Vezelise;;BI110_250;30.3;25022194189A;35146649500378;250;;BF064_250;95.99;25022194018A;;
Mouture;221920041;13/07/2022;05884053 - FERMES BIO COOP;0005 - Vezelise;;BI110_250;27.88;25022196155A;35146649500378;250;;BF064_250;95.99;25022194018A;;
Mouture;221920041;13/07/2022;05884053 - FERMES BIO COOP;0005 - Vezelise;;BI110_250;28.26;25022201226A;35146649500378;250;;BF064_250;95.99;25022194018A;;
Mouture;221920041;13/07/2022;05884053 - FERMES BIO COOP;0005 - Vezelise;;BI110_250;30.3;25022201250A;35146649500378;250;;BF064_250;95.99;25022194018A;;
Mouture;221920041;13/07/2022;05930053 - UNION COOPS BIO CEREALES;0001 - Vaux le Pénil;;BI110_250;30.16;25022201243A;35146649500378;250;;BF064_250;95.99;25022194018A;;
Mouture;221920041;13/07/2022;05884053 - FERMES BIO COOP;0005 - Vezelise;;BI110_250;30.38;25022201263A;35146649500378;250;;BF064_250;95.99;25022194018A;;
Mouture;221920041;13/07/2022;05930053 - UNION COOPS BIO CEREALES;0001 - Vaux le Pénil;;BI110_250;28.14;25022202121A;35146649500378;250;;BF064_250;95.99;25022194018A;;
Mouture;221960078;17/07/2022;05930053 - UNION COOPS BIO CEREALES;0003 - Toury;;BI110_250;27.4;25022174156A;35146649500378;250;;BF064_250;96.9;25022198005A;;
Mouture;221960078;17/07/2022;05930053 - UNION COOPS BIO CEREALES;0003 - Toury;;BI110_250;30.46;25022174160A;35146649500378;250;;BF064_250;96.9;25022198005A;;
Mouture;221960078;17/07/2022;05930053 - UNION COOPS BIO CEREALES;0006 - Egreville;;BI110_250;30.44;25022174165A;35146649500378;250;;BF064_250;96.9;25022198005A;;
Mouture;221960078;17/07/2022;05930053 - UNION COOPS BIO CEREALES;0006 - Egreville;;BI110_250;27.9;25022174211A;35146649500378;250;;BF064_250;96.9;25022198005A;;
Mouture;221960078;17/07/2022;05930053 - UNION COOPS BIO CEREALES;0001 - Vaux le Pénil;;BI110_250;30.14;25022175071A;35146649500378;250;;BF064_250;96.9;25022198005A;;
Mouture;221960078;17/07/2022;05930053 - UNION COOPS BIO CEREALES;0001 - Vaux le Pénil;;BI110_250;29.78;25022174220A;35146649500378;250;;BF064_250;96.9;25022198005A;;
Mouture;221960078;17/07/2022;05884053 - FERMES BIO COOP;0005 - Vezelise;;BI110_250;27.68;25022187212A;35146649500378;250;;BF064_250;96.9;25022198005A;;
Mouture;221960078;17/07/2022;05884053 - FERMES BIO COOP;0005 - Vezelise;;BI110_250;29.98;25022187214A;35146649500378;250;;BF064_250;96.9;25022198005A;;
Mouture;221960078;17/07/2022;05884053 - FERMES BIO COOP;0005 - Vezelise;;BI110_250;29.84;25022187225A;35146649500378;250;;BF064_250;96.9;25022198005A;;
Mouture;221960078;17/07/2022;05884053 - FERMES BIO COOP;0005 - Vezelise;;BI110_250;29.98;25022187242A;35146649500378;250;;BF064_250;96.9;25022198005A;;
Mouture;221960078;17/07/2022;05884053 - FERMES BIO COOP;0005 - Vezelise;;BI110_250;28;25022188182A;35146649500378;250;;BF064_250;96.9;25022198005A;;
Mouture;221960078;17/07/2022;05884053 - FERMES BIO COOP;0005 - Vezelise;;BI110_250;27.76;25022194139A;35146649500378;250;;BF064_250;96.9;25022198005A;;
Mouture;221960078;17/07/2022;05884053 - FERMES BIO COOP;0005 - Vezelise;;BI110_250;29.84;25022194150A;35146649500378;250;;BF064_250;96.9;25022198005A;;
Mouture;221960078;17/07/2022;05884053 - FERMES BIO COOP;0005 - Vezelise;;BI110_250;30.16;25022194160A;35146649500378;250;;BF064_250;96.9;25022198005A;;
Mouture;221960078;17/07/2022;05884053 - FERMES BIO COOP;0005 - Vezelise;;BI110_250;28.44;25022194172A;35146649500378;250;;BF064_250;96.9;25022198005A;;
Mouture;221960078;17/07/2022;05884053 - FERMES BIO COOP;0005 - Vezelise;;BI110_250;30.3;25022194189A;35146649500378;250;;BF064_250;96.9;25022198005A;;
Mouture;221960078;17/07/2022;05884053 - FERMES BIO COOP;0005 - Vezelise;;BI110_250;27.88;25022196155A;35146649500378;250;;BF064_250;96.9;25022198005A;;
Mouture;221960078;17/07/2022;05884053 - FERMES BIO COOP;0005 - Vezelise;;BI110_250;28.26;25022201226A;35146649500378;250;;BF064_250;96.9;25022198005A;;
Mouture;221960078;17/07/2022;05884053 - FERMES BIO COOP;0005 - Vezelise;;BI110_250;30.3;25022201250A;35146649500378;250;;BF064_250;96.9;25022198005A;;
Mouture;221960078;17/07/2022;05930053 - UNION COOPS BIO CEREALES;0001 - Vaux le Pénil;;BI110_250;30.16;25022201243A;35146649500378;250;;BF064_250;96.9;25022198005A;;
Mouture;221960078;17/07/2022;05884053 - FERMES BIO COOP;0005 - Vezelise;;BI110_250;30.38;25022201263A;35146649500378;250;;BF064_250;96.9;25022198005A;;
Mouture;221960078;17/07/2022;05930053 - UNION COOPS BIO CEREALES;0001 - Vaux le Pénil;;BI110_250;28.14;25022202121A;35146649500378;250;;BF064_250;96.9;25022198005A;;
Mouture;222010053;22/07/2022;05930053 - UNION COOPS BIO CEREALES;0003 - Toury;;BI110_250;27.4;25022174156A;35146649500378;250;;BF064_250;115.38;25022203250A;;
Mouture;222010053;22/07/2022;05930053 - UNION COOPS BIO CEREALES;0003 - Toury;;BI110_250;30.46;25022174160A;35146649500378;250;;BF064_250;115.38;25022203250A;;
Mouture;222010053;22/07/2022;05930053 - UNION COOPS BIO CEREALES;0006 - Egreville;;BI110_250;30.44;25022174165A;35146649500378;250;;BF064_250;115.38;25022203250A;;
Mouture;222010053;22/07/2022;05930053 - UNION COOPS BIO CEREALES;0006 - Egreville;;BI110_250;27.9;25022174211A;35146649500378;250;;BF064_250;115.38;25022203250A;;
Mouture;222010053;22/07/2022;05930053 - UNION COOPS BIO CEREALES;0001 - Vaux le Pénil;;BI110_250;30.14;25022175071A;35146649500378;250;;BF064_250;115.38;25022203250A;;
Mouture;222010053;22/07/2022;05930053 - UNION COOPS BIO CEREALES;0001 - Vaux le Pénil;;BI110_250;29.78;25022174220A;35146649500378;250;;BF064_250;115.38;25022203250A;;
Mouture;222010053;22/07/2022;05884053 - FERMES BIO COOP;0005 - Vezelise;;BI110_250;27.68;25022187212A;35146649500378;250;;BF064_250;115.38;25022203250A;;
Mouture;222010053;22/07/2022;05884053 - FERMES BIO COOP;0005 - Vezelise;;BI110_250;29.98;25022187214A;35146649500378;250;;BF064_250;115.38;25022203250A;;
Mouture;222010053;22/07/2022;05884053 - FERMES BIO COOP;0005 - Vezelise;;BI110_250;29.84;25022187225A;35146649500378;250;;BF064_250;115.38;25022203250A;;
Mouture;222010053;22/07/2022;05884053 - FERMES BIO COOP;0005 - Vezelise;;BI110_250;29.98;25022187242A;35146649500378;250;;BF064_250;115.38;25022203250A;;
Mouture;222010053;22/07/2022;05884053 - FERMES BIO COOP;0005 - Vezelise;;BI110_250;28;25022188182A;35146649500378;250;;BF064_250;115.38;25022203250A;;
Mouture;222010053;22/07/2022;05884053 - FERMES BIO COOP;0005 - Vezelise;;BI110_250;27.76;25022194139A;35146649500378;250;;BF064_250;115.38;25022203250A;;
Mouture;222010053;22/07/2022;05884053 - FERMES BIO COOP;0005 - Vezelise;;BI110_250;29.84;25022194150A;35146649500378;250;;BF064_250;115.38;25022203250A;;
Mouture;222010053;22/07/2022;05884053 - FERMES BIO COOP;0005 - Vezelise;;BI110_250;30.16;25022194160A;35146649500378;250;;BF064_250;115.38;25022203250A;;
Mouture;222010053;22/07/2022;05884053 - FERMES BIO COOP;0005 - Vezelise;;BI110_250;28.44;25022194172A;35146649500378;250;;BF064_250;115.38;25022203250A;;
Mouture;222010053;22/07/2022;05884053 - FERMES BIO COOP;0005 - Vezelise;;BI110_250;30.3;25022194189A;35146649500378;250;;BF064_250;115.38;25022203250A;;
Mouture;222010053;22/07/2022;05884053 - FERMES BIO COOP;0005 - Vezelise;;BI110_250;27.88;25022196155A;35146649500378;250;;BF064_250;115.38;25022203250A;;
Mouture;222010053;22/07/2022;05884053 - FERMES BIO COOP;0005 - Vezelise;;BI110_250;28.26;25022201226A;35146649500378;250;;BF064_250;115.38;25022203250A;;
Mouture;222010053;22/07/2022;05884053 - FERMES BIO COOP;0005 - Vezelise;;BI110_250;30.3;25022201250A;35146649500378;250;;BF064_250;115.38;25022203250A;;
Mouture;222010053;22/07/2022;05930053 - UNION COOPS BIO CEREALES;0001 - Vaux le Pénil;;BI110_250;30.16;25022201243A;35146649500378;250;;BF064_250;115.38;25022203250A;;
Mouture;222010053;22/07/2022;05884053 - FERMES BIO COOP;0005 - Vezelise;;BI110_250;30.38;25022201263A;35146649500378;250;;BF064_250;115.38;25022203250A;;
Mouture;222010053;22/07/2022;05930053 - UNION COOPS BIO CEREALES;0001 - Vaux le Pénil;;BI110_250;28.14;25022202121A;35146649500378;250;;BF064_250;115.38;25022203250A;;
Mouture;222100086;01/08/2022;05781053 - CENTRE BIO;0002 - Pont/Vanne;;BI110_250;27.6;25022208124A;35146649500378;250;;BF064_250;88.48;25022214003A;;
Mouture;222100086;01/08/2022;05781053 - CENTRE BIO;0002 - Pont/Vanne;;BI110_250;30.24;25022208137A;35146649500378;250;;BF064_250;88.48;25022214003A;;
Mouture;222100086;01/08/2022;05884053 - FERMES BIO COOP;0000 - Tous lieux d'enlèvements;;BI110_250;30.5;25022208151A;35146649500378;250;;BF064_250;88.48;25022214003A;;
Mouture;222100086;01/08/2022;05884053 - FERMES BIO COOP;0000 - Tous lieux d'enlèvements;;BI110_250;29.56;25022208180A;35146649500378;250;;BF064_250;88.48;25022214003A;;
Mouture;222100086;01/08/2022;05781053 - CENTRE BIO;0000 - Tous lieux d'enlèvements;;BI110_250;30.3;25022208194A;35146649500378;250;;BF064_250;88.48;25022214003A;;
Mouture;222100086;01/08/2022;05781053 - CENTRE BIO;0000 - Tous lieux d'enlèvements;;BI110_250;29.68;25022208202A;35146649500378;250;;BF064_250;88.48;25022214003A;;
Mouture;222100086;01/08/2022;05884053 - FERMES BIO COOP;0000 - Tous lieux d'enlèvements;;BI110_250;29.98;25022220191A;35146649500378;250;;BF064_250;88.48;25022214003A;;
Mouture;222100086;01/08/2022;05884053 - FERMES BIO COOP;0003 - Bazarnes;;BI110_250;28.48;25022222100A;35146649500378;250;;BF064_250;88.48;25022214003A;;
Mouture;222100086;01/08/2022;05884053 - FERMES BIO COOP;0003 - Bazarnes;;BI110_250;30.32;25022222116A;35146649500378;250;;BF064_250;88.48;25022214003A;;
Mouture;222100086;01/08/2022;05884053 - FERMES BIO COOP;0003 - Bazarnes;;BI110_250;30.3;25022222123A;35146649500378;250;;BF064_250;88.48;25022214003A;;
Mouture;222100086;01/08/2022;05884053 - FERMES BIO COOP;0003 - Bazarnes;;BI110_250;28.24;25022222206A;35146649500378;250;;BF064_250;88.48;25022214003A;;
Mouture;222100086;01/08/2022;05884053 - FERMES BIO COOP;0003 - Bazarnes;;BI110_250;30.26;25022222233A;35146649500378;250;;BF064_250;88.48;25022214003A;;
Mouture;222100086;01/08/2022;05884053 - FERMES BIO COOP;0003 - Bazarnes;;BI110_250;29.64;25022222245A;35146649500378;250;;BF064_250;88.48;25022214003A;;
