﻿id_tournee;tr_operateur_transport_ident;tr_operateur_transport_pays;immatriculation_camion;transporteur_nom;transporteur_agrement;tr_type_dechargement_code;tr_type_animaux_code;tr_contestation_id;tr_operateur_transport_pays;tr_operateur_transport_ident;rf_exploitation_code_pays;rf_exploitation_numero_ident;mt_site_code_pays;mt_site_numero_ident;date;delegation_ot;camion_vide_avant;camion_vide_apres;nb_animaux;type_lieu;type_mouvement;ordre_chrono
5165234;BDPGPINDEP;FR;XXXXXXXX;LUI MEME;xxxxxxxx;;CH;;FR;BDPGPINDEP;;;FR;29NT1;04/11/2021;1;0;;2;S;C;2
5165234;BDPGPINDEP;FR;XXXXXXXX;LUI MEME;xxxxxxxx;DA;CH;;FR;BDPGPINDEP;FR;29053024;;;04/11/2021;1;;1;4;E;D;3
5155151;BDPOT29TOPIG;FR;FX203LT;INIZAN (19,25 ?);29068;;RP;;FR;BDPOT29TOPIG;;;FR;2239R;04/11/2021;1;1;;109;S;C;1
5155151;BDPOT29TOPIG;FR;FX203LT;INIZAN (19,25 ?);29068;DN;RP;;FR;BDPOT29TOPIG;;;FR;29AXM;05/11/2021;1;;0;18;S;D;7
5155151;BDPOT29TOPIG;FR;FX203LT;INIZAN (19,25 ?);29068;DN;RP;;FR;BDPOT29TOPIG;;;FR;29GTN;05/11/2021;1;;0;14;S;D;8
5155151;BDPOT29TOPIG;FR;FX203LT;INIZAN (19,25 ?);29068;DN;RP;;FR;BDPOT29TOPIG;;;FR;29SW1;05/11/2021;1;;0;13;S;D;9
5155151;BDPOT29TOPIG;FR;FX203LT;INIZAN (19,25 ?);29068;DN;RP;;FR;BDPOT29TOPIG;;;FR;29FRC;05/11/2021;1;;1;12;S;D;10
5152680;0292949693;FR;DE045XG;Transport inizan;29068;;CH;;FR;0292949693;;;FR;29FRC;08/11/2021;1;1;;205;S;C;1
5152680;0292949693;FR;DE045XG;Transport inizan;29068;DA;CH;;FR;0292949693;FR;29233017;;;08/11/2021;1;;1;205;E;D;2
5152740;0292949693;FR;EL028FK;Transport inizan;29068;;CH;;FR;0292949693;;;FR;29BZQ;08/11/2021;1;1;;200;S;C;1
5152740;0292949693;FR;EL028FK;Transport inizan;29068;DA;CH;;FR;0292949693;FR;29233017;;;08/11/2021;1;;0;199;E;D;2
5152740;0292949693;FR;EL028FK;Transport inizan;29068;DA;MQ;;FR;0292949693;FR;29233017;;;08/11/2021;1;;1;1;E;D;3
5154851;BDPOT22PICFR;FR;FK780MP;RODRIGUE HUET;FR53068VH;;RP;;FR;BDPOT22PICFR;;;FR;41PEK;08/11/2021;1;1;;29;S;C;1
5154851;BDPOT22PICFR;FR;FK780MP;RODRIGUE HUET;FR53068VH;DN;RP;;FR;BDPOT22PICFR;;;FR;29SPK;08/11/2021;1;;1;7;S;D;3
5161061;0292949693;FR;EW888LB;BIGARD QUIMPERLE;29106;;CH;;FR;0292949693;;;FR;29SPK;17/11/2021;1;1;;151;S;C;1
5161061;0292949693;FR;EW888LB;BIGARD QUIMPERLE;29106;DA;CH;;FR;0292949693;FR;29233017;;;17/11/2021;1;;1;151;E;D;2
5174785;0292949693;FR;561AQQ29;BIGARD QUIMPERLE;29106;;CH;;FR;0292949693;;;FR;29SPK;01/12/2021;1;1;;150;S;C;1
5174785;0292949693;FR;561AQQ29;BIGARD QUIMPERLE;29106;DA;CH;;FR;0292949693;FR;29233017;;;01/12/2021;1;;1;150;E;D;2
5193377;BDPGPINDEP;FR;XXXXXXXX;LUI MEME;xxxxxxxx;;CH;;FR;BDPGPINDEP;;;FR;29LRT;02/12/2021;1;0;;5;S;C;2
5193377;BDPGPINDEP;FR;XXXXXXXX;LUI MEME;xxxxxxxx;;CH;;FR;BDPGPINDEP;;;FR;29NT1;02/12/2021;1;0;;2;S;C;3
5193377;BDPGPINDEP;FR;XXXXXXXX;LUI MEME;xxxxxxxx;DA;25;;FR;BDPGPINDEP;FR;29053024;;;02/12/2021;1;;0;1;E;D;6
5193377;BDPGPINDEP;FR;XXXXXXXX;LUI MEME;xxxxxxxx;DA;CH;;FR;BDPGPINDEP;FR;29053024;;;02/12/2021;1;;1;10;E;D;7
5175755;BDPOT22HYPOR;FR;FW181QZ;TRANSPORT RAULT;;;RP;;FR;BDPOT22HYPOR;;;FR;41WWJ;01/12/2021;1;1;;136;S;C;1
5175755;BDPOT22HYPOR;FR;FW181QZ;TRANSPORT RAULT;;DN;RP;;FR;BDPOT22HYPOR;;;FR;72MEZ;01/12/2021;1;;0;40;S;D;2
5175755;BDPOT22HYPOR;FR;FW181QZ;TRANSPORT RAULT;;DN;RP;;FR;BDPOT22HYPOR;;;FR;53RXV;01/12/2021;1;;0;4;S;D;3
5175755;BDPOT22HYPOR;FR;FW181QZ;TRANSPORT RAULT;;DN;RP;;FR;BDPOT22HYPOR;;;FR;29HQB;02/12/2021;1;;0;18;S;D;4
5175755;BDPOT22HYPOR;FR;FW181QZ;TRANSPORT RAULT;;DN;RP;;FR;BDPOT22HYPOR;;;FR;29JTC;02/12/2021;1;;0;10;S;D;5
5175755;BDPOT22HYPOR;FR;FW181QZ;TRANSPORT RAULT;;DN;RP;;FR;BDPOT22HYPOR;;;FR;29HSK;02/12/2021;1;;0;12;S;D;9
5185247;BDPGP35PORAR;FR;EV077VN;CHARLES SAS;29302;;CH;;FR;BDPGP35PORAR;;;FR;29NT1;13/12/2021;1;1;;101;S;C;1
5185247;BDPGP35PORAR;FR;EV077VN;CHARLES SAS;29302;DA;CH;;FR;BDPGP35PORAR;FR;22136487;;;13/12/2021;1;;1;101;E;D;2
5188534;0292949693;FR;EW888LB;BIGARD QUIMPERLE;29106;;CH;;FR;0292949693;;;FR;29SPK;15/12/2021;1;1;;150;S;C;1
5188534;0292949693;FR;EW888LB;BIGARD QUIMPERLE;29106;DA;CH;;FR;0292949693;FR;29233017;;;15/12/2021;1;;1;150;E;D;2
5208309;BDPGP35PORAR;FR;FT362KJ;CHARLES SAS;29302;;CH;;FR;BDPGP35PORAR;;;FR;29NT1;07/01/2022;1;1;;200;S;C;1
5208309;BDPGP35PORAR;FR;FT362KJ;CHARLES SAS;29302;DA;CH;;FR;BDPGP35PORAR;FR;22136487;;;07/01/2022;1;;1;200;E;D;2
5211961;0292949693;FR;EA597ZK;Transport inizan;29068;;CH;;FR;0292949693;;;FR;29BZQ;10/01/2022;1;1;;200;S;C;1
5211961;0292949693;FR;EA597ZK;Transport inizan;29068;DA;CH;;FR;0292949693;FR;29233017;;;10/01/2022;1;;1;200;E;D;2
5218835;0292949693;FR;DQ350EQ;GUEVEL ET FILS;29017;;CH;;FR;0292949693;;;FR;29WK1;17/01/2022;1;1;;150;S;C;1
5218835;0292949693;FR;DQ350EQ;GUEVEL ET FILS;29017;DA;CH;;FR;0292949693;FR;29233017;;;17/01/2022;1;;1;150;E;D;2
5221743;BDPGP35PORAR;FR;FT362KJ;CHARLES SAS;29302;;CH;;FR;BDPGP35PORAR;;;FR;29NT1;20/01/2022;1;1;;200;S;C;1
5221743;BDPGP35PORAR;FR;FT362KJ;CHARLES SAS;29302;DA;CH;;FR;BDPGP35PORAR;FR;22136487;;;20/01/2022;1;;0;198;E;D;2
5221743;BDPGP35PORAR;FR;FT362KJ;CHARLES SAS;29302;DA;MQ;;FR;BDPGP35PORAR;FR;22136487;;;20/01/2022;1;;1;2;E;D;3
5225120;0292949693;FR;FY529KD;Transport inizan;29068;;CH;;FR;0292949693;;;FR;29BZQ;24/01/2022;1;1;;201;S;C;1
5225120;0292949693;FR;FY529KD;Transport inizan;29068;DA;CH;;FR;0292949693;FR;29233017;;;24/01/2022;1;;0;199;E;D;2
5225120;0292949693;FR;FY529KD;Transport inizan;29068;DA;MO;;FR;0292949693;FR;29233017;;;24/01/2022;1;;0;1;E;D;3
5225120;0292949693;FR;FY529KD;Transport inizan;29068;DA;MQ;;FR;0292949693;FR;29233017;;;24/01/2022;1;;1;1;E;D;4
5231782;0292949693;FR;561AQQ29;BIGARD QUIMPERLE;29106;;CH;;FR;0292949693;;;FR;29SPK;28/01/2022;1;1;;150;S;C;1
5231782;0292949693;FR;561AQQ29;BIGARD QUIMPERLE;29106;DA;CH;;FR;0292949693;FR;29233017;;;28/01/2022;1;;1;150;E;D;2
5232976;0292949693;FR;FY529KD;Transport inizan;29068;;CH;;FR;0292949693;;;FR;29AT9;31/01/2022;1;1;;100;S;C;1
5232976;0292949693;FR;FY529KD;Transport inizan;29068;;CH;;FR;0292949693;;;FR;29WK1;31/01/2022;1;0;;111;S;C;2
5232976;0292949693;FR;FY529KD;Transport inizan;29068;DA;CH;;FR;0292949693;FR;29233017;;;31/01/2022;1;;0;209;E;D;3
5232976;0292949693;FR;FY529KD;Transport inizan;29068;DA;MO;;FR;0292949693;FR;29233017;;;31/01/2022;1;;0;1;E;D;4
5232976;0292949693;FR;FY529KD;Transport inizan;29068;DA;MQ;;FR;0292949693;FR;29233017;;;31/01/2022;1;;1;1;E;D;5
5251467;0292941758;FR;2504129;talarmain;;;08;;FR;0292941758;;;FR;29BZQ;09/02/2022;1;1;;220;S;C;1
5251467;0292941758;FR;2504129;talarmain;;;08;;FR;0292941758;;;FR;29AT9;09/02/2022;1;;1;220;S;D;2
5253009;0292941758;FR;2504129;talarmain;;;25;;FR;0292941758;;;FR;29BZQ;14/02/2022;1;1;;104;S;C;1
5253009;0292941758;FR;2504129;talarmain;;DT;25;;FR;0292941758;;;FR;29WK1;14/02/2022;1;;1;104;S;D;2
5261968;BDPGP35PORAR;FR;DQ350EQ;GUEVEL PIERRE TRANSPORTS SARL;29017;;RF;;FR;BDPGP35PORAR;;;FR;29SPK;03/03/2022;1;1;;18;S;C;1
5261968;BDPGP35PORAR;FR;DQ350EQ;GUEVEL PIERRE TRANSPORTS SARL;29017;DA;RF;;FR;BDPGP35PORAR;FR;22136487;;;03/03/2022;1;;1;18;E;D;2
5265321;BDPGPINDEP;FR;DP826VX;GUEVEL PIERRE TRANSPORTS SARL;29017;;RF;;FR;BDPGPINDEP;;;FR;29BZQ;07/03/2022;1;1;;16;S;C;1
5265321;BDPGPINDEP;FR;DP826VX;GUEVEL PIERRE TRANSPORTS SARL;29017;DA;RF;;FR;BDPGPINDEP;FR;22136487;;;07/03/2022;1;;1;16;E;D;2
5268383;BDPGP35PORAR;FR;DR130QQ;CHARLES SAS;29302;;CH;;FR;BDPGP35PORAR;;;FR;29NT1;09/03/2022;1;1;;200;S;C;1
5268383;BDPGP35PORAR;FR;DR130QQ;CHARLES SAS;29302;DA;CH;;FR;BDPGP35PORAR;FR;22136487;;;09/03/2022;1;;0;194;E;D;2
5268383;BDPGP35PORAR;FR;DR130QQ;CHARLES SAS;29302;DA;MQ;;FR;BDPGP35PORAR;FR;22136487;;;09/03/2022;1;;1;6;E;D;3
5275573;0292949693;FR;AW265QX;Transport inizan;29068;;CH;;FR;0292949693;;;FR;29AT9;14/03/2022;1;1;;82;S;C;1
5275573;0292949693;FR;AW265QX;Transport inizan;29068;;CH;;FR;0292949693;;;FR;29WK1;14/03/2022;1;0;;118;S;C;2
5275573;0292949693;FR;AW265QX;Transport inizan;29068;DA;CH;;FR;0292949693;FR;29233017;;;14/03/2022;1;;1;200;E;D;3
5286687;BDPGPINDEP;FR;XXXXXXXX;LUI MEME;xxxxxxxx;;25;;FR;BDPGPINDEP;;;FR;29NT1;24/03/2022;1;1;;1;S;C;1
5286687;BDPGPINDEP;FR;XXXXXXXX;LUI MEME;xxxxxxxx;;CH;;FR;BDPGPINDEP;;;FR;29NT1;24/03/2022;1;0;;3;S;C;2
5286687;BDPGPINDEP;FR;XXXXXXXX;LUI MEME;xxxxxxxx;DA;25;;FR;BDPGPINDEP;FR;29053024;;;24/03/2022;1;;0;1;E;D;3
5286687;BDPGPINDEP;FR;XXXXXXXX;LUI MEME;xxxxxxxx;DA;CH;;FR;BDPGPINDEP;FR;29053024;;;24/03/2022;1;;1;3;E;D;4
5292894;0292949693;FR;DX588JX;BIGARD QUIMPERLE;29106;;CH;;FR;0292949693;;;FR;29SPK;29/03/2022;1;1;;150;S;C;1
5292894;0292949693;FR;DX588JX;BIGARD QUIMPERLE;29106;DA;CH;;FR;0292949693;FR;29233017;;;29/03/2022;1;;1;150;E;D;2
5291707;BDPGP35PORAR;FR;DR130QQ;CHARLES SAS;29302;;CH;;FR;BDPGP35PORAR;;;FR;29NT1;30/03/2022;1;1;;200;S;C;1
5291707;BDPGP35PORAR;FR;DR130QQ;CHARLES SAS;29302;DA;CH;;FR;BDPGP35PORAR;FR;22136487;;;30/03/2022;1;;1;200;E;D;2
5298588;BDPGPINDEP;FR;XXXXXXXX;LUI MEME;xxxxxxxx;;CH;;FR;BDPGPINDEP;;;FR;29NT1;31/03/2022;1;0;;2;S;C;3
5298588;BDPGPINDEP;FR;XXXXXXXX;LUI MEME;xxxxxxxx;DA;CH;;FR;BDPGPINDEP;FR;29053024;;;31/03/2022;1;;1;10;E;D;5
5302018;BDPGP35PORAR;FR;FZ093MV;TRANSPORTS VINCENT RANNOU;FR29012T1;;CH;;FR;BDPGP35PORAR;;;FR;29WG1;07/04/2022;1;1;;90;S;C;1
5302018;BDPGP35PORAR;FR;FZ093MV;TRANSPORTS VINCENT RANNOU;FR29012T1;;CH;;FR;BDPGP35PORAR;;;FR;29JTC;07/04/2022;1;0;;110;S;C;2
5302018;BDPGP35PORAR;FR;FZ093MV;TRANSPORTS VINCENT RANNOU;FR29012T1;DA;CH;;FR;BDPGP35PORAR;FR;22136487;;;07/04/2022;1;;1;200;E;D;3
5313530;0292949693;FR;FV947MG;GUEVEL ET FILS;29017;;CH;;FR;0292949693;;;FR;29BZQ;19/04/2022;1;1;;251;S;C;1
5313530;0292949693;FR;FV947MG;GUEVEL ET FILS;29017;;CH;;FR;0292949693;;;FR;29AT9;19/04/2022;1;0;;100;S;C;2
5313530;0292949693;FR;FV947MG;GUEVEL ET FILS;29017;DA;CH;;FR;0292949693;FR;29233017;;;19/04/2022;1;;0;349;E;D;3
5313530;0292949693;FR;FV947MG;GUEVEL ET FILS;29017;DA;MO;;FR;0292949693;FR;29233017;;;19/04/2022;1;;0;1;E;D;4
5313530;0292949693;FR;FV947MG;GUEVEL ET FILS;29017;DA;MQ;;FR;0292949693;FR;29233017;;;19/04/2022;1;;1;1;E;D;5
5328654;BDPGPINDEP;FR;XXXXXXXX;LUI MEME;xxxxxxxx;;CH;;FR;BDPGPINDEP;;;FR;29NT1;27/04/2022;1;1;;3;S;C;1
5328654;BDPGPINDEP;FR;XXXXXXXX;LUI MEME;xxxxxxxx;DA;CH;;FR;BDPGPINDEP;FR;29053024;;;27/04/2022;1;;1;3;E;D;2
5328892;0292949693;FR;DQ350EQ;GUEVEL ET FILS;29017;;CH;;FR;0292949693;;;FR;29AT9;02/05/2022;1;1;;101;S;C;1
5328892;0292949693;FR;DQ350EQ;GUEVEL ET FILS;29017;DA;CH;;FR;0292949693;FR;29233017;;;02/05/2022;1;;1;140;E;D;3
5329007;0292949693;FR;AW265QX;Transport inizan;29068;;CH;;FR;0292949693;;;FR;29BZQ;02/05/2022;1;1;;150;S;C;1
5329007;0292949693;FR;AW265QX;Transport inizan;29068;;CH;;FR;0292949693;;;FR;29WK1;02/05/2022;1;0;;50;S;C;2
5329007;0292949693;FR;AW265QX;Transport inizan;29068;DA;CH;;FR;0292949693;FR;29233017;;;02/05/2022;1;;1;200;E;D;3
5329863;0292941758;FR;valtra;LUI-MEME;nico;CO;08;;FR;0292941758;;;FR;29BZQ;04/05/2022;1;1;1;218;S;C;1
5329863;0292941758;FR;valtra;LUI-MEME;nico;DT;08;;FR;0292941758;;;FR;29AT9;04/05/2022;1;1;1;218;S;D;2
5333721;BDPGP35PORAR;FR;ES368BF;CHARLES SAS;29302;;CH;;FR;BDPGP35PORAR;;;FR;29NT1;09/05/2022;1;1;;200;S;C;1
5333721;BDPGP35PORAR;FR;ES368BF;CHARLES SAS;29302;DA;CH;;FR;BDPGP35PORAR;FR;22136487;;;09/05/2022;1;;0;199;E;D;2
5333721;BDPGP35PORAR;FR;ES368BF;CHARLES SAS;29302;DA;MQ;;FR;BDPGP35PORAR;FR;22136487;;;09/05/2022;1;;1;1;E;D;3
5252997;0292941758;FR;2504129;talarmain;;;08;;FR;0292941758;;;FR;29BZQ;15/12/2021;1;1;;200;S;C;1
5252997;0292941758;FR;2504129;talarmain;;DT;08;;FR;0292941758;;;FR;29AT9;15/12/2021;1;;1;200;S;D;2
5329812;0292941758;FR;2504129;talarmain;;;25;;FR;0292941758;;;FR;29BZQ;28/02/2022;1;1;;203;S;C;1
5329812;0292941758;FR;2504129;talarmain;;DT;25;;FR;0292941758;;;FR;29WK1;28/02/2022;1;;1;203;S;D;2
5314531;BDPGPINDEP;FR;XXXXXXXX;LUI MEME;xxxxxxxx;;CH;;FR;BDPGPINDEP;;;FR;29NT1;14/04/2022;1;1;;3;S;C;1
5314531;BDPGPINDEP;FR;XXXXXXXX;LUI MEME;xxxxxxxx;DA;CH;;FR;BDPGPINDEP;FR;29053024;;;14/04/2022;1;;1;3;E;D;2
5152658;0292949693;FR;DQ350EQ;GUEVEL ET FILS;29017;;CH;;FR;0292949693;;;FR;29WK1;08/11/2021;1;1;;60;S;C;1
5152658;0292949693;FR;DQ350EQ;GUEVEL ET FILS;29017;;CH;;FR;0292949693;;;FR;29AT9;08/11/2021;1;0;;90;S;C;2
5152658;0292949693;FR;DQ350EQ;GUEVEL ET FILS;29017;DA;CH;;FR;0292949693;FR;29233017;;;08/11/2021;1;;1;150;E;D;3
5253007;0292941758;FR;2504129;talarmain;;;25;;FR;0292941758;;;FR;29BZQ;17/01/2022;1;1;;262;S;C;1
5253007;0292941758;FR;2504129;talarmain;;DT;25;;FR;0292941758;;;FR;29WK1;17/01/2022;1;;1;262;S;D;2
5252988;0292941758;FR;2504129;talarmain;;;08;;FR;0292941758;;;FR;29BZQ;26/01/2022;1;1;;210;S;C;1
5252988;0292941758;FR;2504129;talarmain;;DT;08;;FR;0292941758;;;FR;29AT9;26/01/2022;1;;1;210;S;D;2
5329816;0292941758;FR;2504129;talarmain;;;08;;FR;0292941758;;;FR;29BZQ;06/04/2022;1;1;;219;S;C;1
5329816;0292941758;FR;2504129;talarmain;;DT;08;;FR;0292941758;;;FR;29AT9;06/04/2022;1;;1;219;S;D;2
5253003;0292941758;FR;2504129;talarmain;;;08;;FR;0292941758;;;FR;29BZQ;17/11/2021;1;1;;200;S;C;1
5253003;0292941758;FR;2504129;talarmain;;DT;08;;FR;0292941758;;;FR;29AT9;17/11/2021;1;;1;200;S;D;2
5208353;BDPGP35PORAR;FR;DP826VX;GUEVEL PIERRE TRANSPORTS SARL;29017;;RF;;FR;BDPGP35PORAR;;;FR;29NT1;07/01/2022;1;1;;7;S;C;1
5208353;BDPGP35PORAR;FR;DP826VX;GUEVEL PIERRE TRANSPORTS SARL;29017;;RF;;FR;BDPGP35PORAR;;;FR;29LNC;07/01/2022;1;0;;4;S;C;2
5208353;BDPGP35PORAR;FR;DP826VX;GUEVEL PIERRE TRANSPORTS SARL;29017;DA;RF;;FR;BDPGP35PORAR;FR;22136487;;;07/01/2022;1;;1;11;E;D;3
5253008;0292941758;FR;2504129;talarmain;;;25;;FR;0292941758;;;FR;29BZQ;31/01/2022;1;1;;184;S;C;1
5253008;0292941758;FR;2504129;talarmain;;DT;25;;FR;0292941758;;;FR;29WK1;31/01/2022;1;;1;184;S;D;2
5305855;0292949693;FR;AW265QX;Transport inizan;29068;;CH;;FR;0292949693;;;FR;29BZQ;11/04/2022;1;1;;200;S;C;1
5305855;0292949693;FR;AW265QX;Transport inizan;29068;;MQ;;FR;0292949693;;;FR;29BZQ;11/04/2022;1;0;;61;S;C;2
5305855;0292949693;FR;AW265QX;Transport inizan;29068;DA;CH;;FR;0292949693;FR;29233017;;;11/04/2022;1;;0;260;E;D;3
5305855;0292949693;FR;AW265QX;Transport inizan;29068;DA;MO;;FR;0292949693;FR;29233017;;;11/04/2022;1;;1;1;E;D;4
5329854;0292953253;FR;4043029;LUI-MEME;;CO;25;;FR;0292953253;;;FR;29JTC;05/05/2022;1;1;1;103;S;C;1
5329854;0292953253;FR;4043029;LUI-MEME;;DT;25;;FR;0292953253;FR;;FR;29WG1;05/05/2022;1;1;1;103;S;D;2
5253000;0292941758;FR;2504129;talarmain;;;08;;FR;0292941758;;;FR;29BZQ;01/11/2021;1;1;;200;S;C;1
5253000;0292941758;FR;2504129;talarmain;;DT;08;;FR;0292941758;;;FR;29AT9;01/11/2021;1;;1;200;S;D;2
5193415;BDPGPINDEP;FR;XXXXXXXX;LUI MEME;xxxxxxxx;;25;;FR;BDPGPINDEP;;;FR;29NT1;09/12/2021;1;1;;1;S;C;1
5193415;BDPGPINDEP;FR;XXXXXXXX;LUI MEME;xxxxxxxx;;CH;;FR;BDPGPINDEP;;;FR;29NT1;09/12/2021;1;0;;2;S;C;2
5193415;BDPGPINDEP;FR;XXXXXXXX;LUI MEME;xxxxxxxx;DA;25;;FR;BDPGPINDEP;FR;29053024;;;09/12/2021;1;;0;1;E;D;3
5193415;BDPGPINDEP;FR;XXXXXXXX;LUI MEME;xxxxxxxx;DA;CH;;FR;BDPGPINDEP;FR;29053024;;;09/12/2021;1;;1;2;E;D;4
5205422;BDPGP35PORAR;FR;FL218TV;GUEVEL PIERRE TRANSPORTS SARL;29017;;RF;;FR;BDPGP35PORAR;;;FR;29SPK;05/01/2022;1;1;;27;S;C;1
5205422;BDPGP35PORAR;FR;FL218TV;GUEVEL PIERRE TRANSPORTS SARL;29017;DA;RF;;FR;BDPGP35PORAR;FR;22136487;;;05/01/2022;1;;1;27;E;D;2
5329814;0292941758;FR;2504129;talarmain;;;25;;FR;0292941758;;;FR;29BZQ;14/03/2022;1;1;;200;S;C;1
5329814;0292941758;FR;2504129;talarmain;;DT;25;;FR;0292941758;;;FR;29WK1;14/03/2022;1;;1;200;S;D;2
5182946;BDPGPINDEP;FR;XXXXXXXX;LUI MEME;xxxxxxxx;;25;;FR;BDPGPINDEP;;;FR;29NT1;17/11/2021;1;0;;2;S;C;2
5182946;BDPGPINDEP;FR;XXXXXXXX;LUI MEME;xxxxxxxx;;CH;;FR;BDPGPINDEP;;;FR;29NT1;17/11/2021;1;0;;2;S;C;3
5182946;BDPGPINDEP;FR;XXXXXXXX;LUI MEME;xxxxxxxx;DA;25;;FR;BDPGPINDEP;FR;29053024;;;17/11/2021;1;;0;3;E;D;6
5182946;BDPGPINDEP;FR;XXXXXXXX;LUI MEME;xxxxxxxx;DA;CH;;FR;BDPGPINDEP;FR;29053024;;;17/11/2021;1;;1;11;E;D;7
5150416;BDPGPINDEP;FR;DP826VX;GUEVEL PIERRE TRANSPORTS SARL;29017;;RF;;FR;BDPGPINDEP;;;FR;29BZQ;08/11/2021;1;1;;21;S;C;1
5150416;BDPGPINDEP;FR;DP826VX;GUEVEL PIERRE TRANSPORTS SARL;29017;DA;RF;;FR;BDPGPINDEP;FR;22136487;;;08/11/2021;1;;1;21;E;D;2
5147048;0292949693;FR;AW265QX;Transport inizan;29068;;CH;;FR;0292949693;;;FR;29BZQ;02/11/2021;1;1;;150;S;C;1
5147048;0292949693;FR;AW265QX;Transport inizan;29068;;CH;;FR;0292949693;;;FR;29WK1;02/11/2021;1;0;;60;S;C;2
5147048;0292949693;FR;AW265QX;Transport inizan;29068;DA;CH;;FR;0292949693;FR;29233017;;;02/11/2021;1;;1;210;E;D;3
5149614;0292949693;FR;BN102QN;CAPITAINE SARL;29008;;CH;;FR;0292949693;;;FR;29SPK;04/11/2021;1;1;;199;S;C;1
5149614;0292949693;FR;BN102QN;CAPITAINE SARL;29008;DA;CH;;FR;0292949693;FR;29233017;;;04/11/2021;1;;1;199;E;D;2
5165446;0292949693;FR;DQ350EQ;GUEVEL ET FILS;29017;;CH;;FR;0292949693;;;FR;29AT9;22/11/2021;1;1;;150;S;C;1
5165446;0292949693;FR;DQ350EQ;GUEVEL ET FILS;29017;DA;CH;;FR;0292949693;FR;29233017;;;22/11/2021;1;;1;150;E;D;2
5167901;0292949693;FR;EW888LB;BIGARD QUIMPERLE;29106;;CH;;FR;0292949693;;;FR;29SPK;24/11/2021;1;1;;200;S;C;1
5167901;0292949693;FR;EW888LB;BIGARD QUIMPERLE;29106;DA;CH;;FR;0292949693;FR;29233017;;;24/11/2021;1;;1;200;E;D;2
5168576;BDPGP35PORAR;FR;DP826VX;GUEVEL PIERRE TRANSPORTS SARL;29017;;RF;;FR;BDPGP35PORAR;;;FR;29SPK;26/11/2021;1;1;;20;S;C;1
5168576;BDPGP35PORAR;FR;DP826VX;GUEVEL PIERRE TRANSPORTS SARL;29017;DA;RF;;FR;BDPGP35PORAR;FR;22136487;;;26/11/2021;1;;1;20;E;D;2
5172202;0292949693;FR;FQ351CR;Transport inizan;29068;;CH;;FR;0292949693;;;FR;29BZQ;29/11/2021;1;1;;200;S;C;1
5172202;0292949693;FR;FQ351CR;Transport inizan;29068;DA;CH;;FR;0292949693;FR;29233017;;;29/11/2021;1;;1;200;E;D;2
5172167;0292949693;FR;ES333WM;GUEVEL ET FILS;29017;;CH;;FR;0292949693;;;FR;29WK1;29/11/2021;1;1;;49;S;C;1
5172167;0292949693;FR;ES333WM;GUEVEL ET FILS;29017;;CH;;FR;0292949693;;;FR;29AT9;29/11/2021;1;0;;100;S;C;2
5172167;0292949693;FR;ES333WM;GUEVEL ET FILS;29017;DA;CH;;FR;0292949693;FR;29233017;;;29/11/2021;1;;1;149;E;D;3
5181086;BDPGP35PORAR;FR;CW438PW;GUEVEL PIERRE TRANSPORTS SARL;29017;;RF;;FR;BDPGP35PORAR;;;FR;29BZQ;09/12/2021;1;1;;13;S;C;1
5181086;BDPGP35PORAR;FR;CW438PW;GUEVEL PIERRE TRANSPORTS SARL;29017;;RF;;FR;BDPGP35PORAR;;;FR;29VY1;09/12/2021;1;0;;5;S;C;2
5181086;BDPGP35PORAR;FR;CW438PW;GUEVEL PIERRE TRANSPORTS SARL;29017;;RF;;FR;BDPGP35PORAR;;;FR;29ZWC;09/12/2021;1;0;;5;S;C;3
5181086;BDPGP35PORAR;FR;CW438PW;GUEVEL PIERRE TRANSPORTS SARL;29017;DA;RF;;FR;BDPGP35PORAR;FR;22136487;;;09/12/2021;1;;1;23;E;D;4
5192590;0292949693;FR;DQ350EQ;GUEVEL ET FILS;29017;;CH;;FR;0292949693;;;FR;29AT9;20/12/2021;1;1;;100;S;C;1
5192590;0292949693;FR;DQ350EQ;GUEVEL ET FILS;29017;;CH;;FR;0292949693;;;FR;29BZQ;20/12/2021;1;0;;250;S;C;2
5192590;0292949693;FR;DQ350EQ;GUEVEL ET FILS;29017;DA;CH;;FR;0292949693;FR;29233017;;;20/12/2021;1;;1;350;E;D;3
5192895;BDPGP35PORAR;FR;FT217YW;CHARLES SAS;29302;;CH;;FR;BDPGP35PORAR;;;FR;29NT1;21/12/2021;1;1;;100;S;C;1
5192895;BDPGP35PORAR;FR;FT217YW;CHARLES SAS;29302;DA;CH;;FR;BDPGP35PORAR;FR;56140027;;;21/12/2021;1;;1;100;E;D;2
5194904;0292949693;FR;ET242SN;CAPITAINE SARL;29008;;CH;;FR;0292949693;;;FR;29SPK;22/12/2021;1;1;;210;S;C;1
5194904;0292949693;FR;ET242SN;CAPITAINE SARL;29008;DA;CH;;FR;0292949693;FR;29233017;;;22/12/2021;1;;1;210;E;D;2
5195474;BDPGP35PORAR;FR;FL788JC;CAPITAINE SARL;29274008TA;;RF;;FR;BDPGP35PORAR;;;FR;56DTX;24/12/2021;1;1;;4;S;C;1
5195474;BDPGP35PORAR;FR;FL788JC;CAPITAINE SARL;29274008TA;DA;RF;;FR;BDPGP35PORAR;FR;29020299;;;24/12/2021;1;;1;4;E;D;2
5211469;BDPGP35PORAR;FR;EW734YS;CAPITAINE SARL;29274008TA;;RF;;FR;BDPGP35PORAR;;;FR;56CBS;11/01/2022;1;1;;10;S;C;1
5211469;BDPGP35PORAR;FR;EW734YS;CAPITAINE SARL;29274008TA;;RF;;FR;BDPGP35PORAR;;;FR;56DTX;11/01/2022;1;0;;3;S;C;2
5211469;BDPGP35PORAR;FR;EW734YS;CAPITAINE SARL;29274008TA;DA;RF;;FR;BDPGP35PORAR;FR;29020299;;;11/01/2022;1;;1;13;E;D;3
5222807;0292949693;FR;ET242SN;CAPITAINE SARL;29008;;CH;;FR;0292949693;;;FR;29SPK;20/01/2022;1;1;;201;S;C;1
5222807;0292949693;FR;ET242SN;CAPITAINE SARL;29008;DA;CH;;FR;0292949693;FR;29233017;;;20/01/2022;1;;1;201;E;D;2
5232595;BDPOT29TOPIG;FR;CX957EG;INIZAN;29068;;RP;;FR;BDPOT29TOPIG;;;FR;2239R;28/01/2022;1;1;;81;S;C;1
5232595;BDPOT29TOPIG;FR;CX957EG;INIZAN;29068;DN;RP;;FR;BDPOT29TOPIG;;;FR;29AXM;28/01/2022;1;;0;12;S;D;5
5232595;BDPOT29TOPIG;FR;CX957EG;INIZAN;29068;DN;RP;;FR;BDPOT29TOPIG;;;FR;29GTN;28/01/2022;1;;0;14;S;D;6
5232595;BDPOT29TOPIG;FR;CX957EG;INIZAN;29068;DN;RP;;FR;BDPOT29TOPIG;;;FR;29SW1;28/01/2022;1;;0;13;S;D;7
5232595;BDPOT29TOPIG;FR;CX957EG;INIZAN;29068;DN;RP;;FR;BDPOT29TOPIG;;;FR;29FRC;28/01/2022;1;;1;12;S;D;8
5232939;0292949693;FR;ET242SN;CAPITAINE SARL;29008;;CH;;FR;0292949693;;;FR;29FRC;31/01/2022;1;1;;205;S;C;1
5232939;0292949693;FR;ET242SN;CAPITAINE SARL;29008;DA;CH;;FR;0292949693;FR;29233017;;;31/01/2022;1;;1;205;E;D;2
5236197;0292953253;FR;4043029;LUI-MEME;;CO;25;;FR;0292953253;;;FR;29JTC;07/02/2022;1;1;1;106;S;C;1
5236197;0292953253;FR;4043029;LUI-MEME;;DT;25;;FR;0292953253;FR;;FR;29WG1;07/02/2022;1;1;1;106;S;D;2
5245159;0292949693;FR;EW734XS;CAPITAINE SARL;29008;;CH;;FR;0292949693;;;FR;29SPK;11/02/2022;1;1;;130;S;C;1
5245159;0292949693;FR;EW734XS;CAPITAINE SARL;29008;;CH;;FR;0292949693;;;FR;29AXM;11/02/2022;1;0;;30;S;C;2
5245159;0292949693;FR;EW734XS;CAPITAINE SARL;29008;DA;CH;;FR;0292949693;FR;29233017;;;11/02/2022;1;;1;160;E;D;3
5255504;0292949693;FR;EW888LB;BIGARD QUIMPERLE;29106;;CH;;FR;0292949693;;;FR;29SPK;23/02/2022;1;1;;101;S;C;1
5255504;0292949693;FR;EW888LB;BIGARD QUIMPERLE;29106;DA;CH;;FR;0292949693;FR;29233017;;;23/02/2022;1;;1;147;E;D;3
5257132;BDPGPINDEP;FR;XXXXXXXX;LUI MEME;xxxxxxxx;;CH;;FR;BDPGPINDEP;;;FR;29NT1;24/02/2022;1;1;;2;S;C;1
5257132;BDPGPINDEP;FR;XXXXXXXX;LUI MEME;xxxxxxxx;DA;CH;;FR;BDPGPINDEP;FR;29053024;;;24/02/2022;1;;1;2;E;D;2
5255792;BDPGP35PORAR;FR;FX417GN;CHARLES SAS;29302;;CH;;FR;BDPGP35PORAR;;;FR;29WG1;24/02/2022;1;1;;85;S;C;1
5255792;BDPGP35PORAR;FR;FX417GN;CHARLES SAS;29302;;CH;;FR;BDPGP35PORAR;;;FR;29JTC;24/02/2022;1;0;;115;S;C;2
5255792;BDPGP35PORAR;FR;FX417GN;CHARLES SAS;29302;;MQ;;FR;BDPGP35PORAR;;;FR;29JTC;24/02/2022;1;0;;1;S;C;3
5255792;BDPGP35PORAR;FR;FX417GN;CHARLES SAS;29302;DA;CH;;FR;BDPGP35PORAR;FR;22136487;;;24/02/2022;1;;1;201;E;D;4
5267863;0292949693;FR;FY529KD;Transport inizan;29068;;CH;;FR;0292949693;;;FR;29FRC;07/03/2022;1;1;;205;S;C;1
5267863;0292949693;FR;FY529KD;Transport inizan;29068;DA;CH;;FR;0292949693;FR;29233017;;;07/03/2022;1;;1;205;E;D;2
5266959;BDPGP35PORAR;FR;DP826VX;GUEVEL PIERRE TRANSPORTS SARL;29017;;RF;;FR;BDPGP35PORAR;;;FR;29NT1;08/03/2022;1;1;;7;S;C;1
5266959;BDPGP35PORAR;FR;DP826VX;GUEVEL PIERRE TRANSPORTS SARL;29017;DA;MQ;;FR;BDPGP35PORAR;FR;29020299;;;08/03/2022;1;;0;1;E;D;2
5266959;BDPGP35PORAR;FR;DP826VX;GUEVEL PIERRE TRANSPORTS SARL;29017;DA;RF;;FR;BDPGP35PORAR;FR;29020299;;;08/03/2022;1;;1;6;E;D;3
5276499;BDPOT29TOPIG;FR;CX957EG;INIZAN (20,30 ?);29068;;RP;;FR;BDPOT29TOPIG;;;FR;2239R;09/03/2022;1;1;;57;S;C;1
5276499;BDPOT29TOPIG;FR;CX957EG;INIZAN (20,30 ?);29068;DN;RP;;FR;BDPOT29TOPIG;;;FR;29GTN;09/03/2022;1;;0;14;S;D;3
5276499;BDPOT29TOPIG;FR;CX957EG;INIZAN (20,30 ?);29068;DN;RP;;FR;BDPOT29TOPIG;;;FR;29SW1;09/03/2022;1;;0;13;S;D;4
5276499;BDPOT29TOPIG;FR;CX957EG;INIZAN (20,30 ?);29068;DN;RP;;FR;BDPOT29TOPIG;;;FR;29FRC;09/03/2022;1;;0;6;S;D;5
5276499;BDPOT29TOPIG;FR;CX957EG;INIZAN (20,30 ?);29068;DN;RP;;FR;BDPOT29TOPIG;;;FR;29AXM;09/03/2022;1;;1;12;S;D;6
5273219;BDPGP35PORAR;FR;DP826VX;GUEVEL PIERRE TRANSPORTS SARL;29017;;RF;;FR;BDPGP35PORAR;;;FR;29SPK;14/03/2022;1;1;;13;S;C;1
5273219;BDPGP35PORAR;FR;DP826VX;GUEVEL PIERRE TRANSPORTS SARL;29017;DA;RF;;FR;BDPGP35PORAR;FR;22136487;;;14/03/2022;1;;1;13;E;D;2
5278647;0292949693;FR;BN102QN;CAPITAINE SARL;29008;;CH;;FR;0292949693;;;FR;29FRC;16/03/2022;1;1;;206;S;C;1
5278647;0292949693;FR;BN102QN;CAPITAINE SARL;29008;DA;CH;;FR;0292949693;FR;29233017;;;16/03/2022;1;;1;206;E;D;2
5287310;0292953253;FR;4043029;LUI-MEME;;CO;25;;FR;0292953253;;;FR;29JTC;26/03/2022;1;1;1;181;S;C;1
5287310;0292953253;FR;4043029;LUI-MEME;;DT;25;;FR;0292953253;FR;;FR;29WG1;26/03/2022;1;1;1;181;S;D;2
5297485;0292949693;FR;EW888LB;BIGARD QUIMPERLE;29106;;CH;;FR;0292949693;;;FR;29SPK;01/04/2022;1;1;;150;S;C;1
5297485;0292949693;FR;EW888LB;BIGARD QUIMPERLE;29106;DA;CH;;FR;0292949693;FR;29233017;;;01/04/2022;1;;1;150;E;D;2
5302490;BDPOT22HYPOR;FR;FW181QZ;TRANSPORT RAULT;;;RP;;FR;BDPOT22HYPOR;;;FR;41WWJ;07/04/2022;1;1;;151;S;C;1
5302490;BDPOT22HYPOR;FR;FW181QZ;TRANSPORT RAULT;;DN;RP;;FR;BDPOT22HYPOR;;;FR;72MEZ;07/04/2022;1;;0;36;S;D;2
5302490;BDPOT22HYPOR;FR;FW181QZ;TRANSPORT RAULT;;DN;RP;;FR;BDPOT22HYPOR;;;FR;53RXV;07/04/2022;1;;0;3;S;D;3
5302490;BDPOT22HYPOR;FR;FW181QZ;TRANSPORT RAULT;;DN;RP;;FR;BDPOT22HYPOR;;;FR;229G3;07/04/2022;1;;0;6;S;D;4
5302490;BDPOT22HYPOR;FR;FW181QZ;TRANSPORT RAULT;;DN;RP;;FR;BDPOT22HYPOR;;;FR;22GDW;07/04/2022;1;;0;6;S;D;5
5302490;BDPOT22HYPOR;FR;FW181QZ;TRANSPORT RAULT;;DN;RP;;FR;BDPOT22HYPOR;;;FR;29HQB;07/04/2022;1;;0;18;S;D;6
5302490;BDPOT22HYPOR;FR;FW181QZ;TRANSPORT RAULT;;DN;RP;;FR;BDPOT22HYPOR;;;FR;29JTC;08/04/2022;1;;0;10;S;D;7
5302490;BDPOT22HYPOR;FR;FW181QZ;TRANSPORT RAULT;;DN;RP;;FR;BDPOT22HYPOR;;;FR;29HSK;08/04/2022;1;;1;12;S;D;15
5302490;BDPOT22HYPOR;FR;FW181QZ;TRANSPORT RAULT;;DN;RP;;FR;BDPOT22HYPOR;;;FR;29QU4;08/04/2022;1;;0;4;S;D;13
5321434;0292949693;FR;AW265QX;Transport inizan;29068;;CH;;FR;0292949693;;;FR;29BZQ;25/04/2022;1;1;;250;S;C;1
5321434;0292949693;FR;AW265QX;Transport inizan;29068;DA;CH;;FR;0292949693;FR;29233017;;;25/04/2022;1;;1;250;E;D;2
5329468;BDPGP35PORAR;FR;FV067YR;CHARLES SAS;29302;;CH;;FR;BDPGP35PORAR;;;FR;29WG1;04/05/2022;1;1;;80;S;C;1
5329468;BDPGP35PORAR;FR;FV067YR;CHARLES SAS;29302;;CH;;FR;BDPGP35PORAR;;;FR;29JTC;04/05/2022;1;0;;120;S;C;2
5329468;BDPGP35PORAR;FR;FV067YR;CHARLES SAS;29302;DA;CH;;FR;BDPGP35PORAR;FR;22136487;;;04/05/2022;1;;0;199;E;D;3
5329468;BDPGP35PORAR;FR;FV067YR;CHARLES SAS;29302;DA;MQ;;FR;BDPGP35PORAR;FR;22136487;;;04/05/2022;1;;1;1;E;D;4
5337033;BDPGPINDEP;FR;XXXXXXXX;LUI MEME;xxxxxxxx;;CH;;FR;BDPGPINDEP;;;FR;29NT1;05/05/2022;1;1;;4;S;C;1
5337033;BDPGPINDEP;FR;XXXXXXXX;LUI MEME;xxxxxxxx;DA;CH;;FR;BDPGPINDEP;FR;29053024;;;05/05/2022;1;;1;4;E;D;2
5336102;0292949693;FR;561AQQ29;BIGARD QUIMPERLE;29106;;CH;;FR;0292949693;;;FR;56DTX;09/05/2022;1;1;;133;S;C;1
5336102;0292949693;FR;561AQQ29;BIGARD QUIMPERLE;29106;DA;CH;;FR;0292949693;FR;29233017;;;09/05/2022;1;;1;133;E;D;2
5339094;BDPGP35PORAR;FR;FT362KJ;CHARLES SAS;29302;;CH;;FR;BDPGP35PORAR;;;FR;29NT1;13/05/2022;1;1;;200;S;C;1
5339094;BDPGP35PORAR;FR;FT362KJ;CHARLES SAS;29302;DA;CH;;FR;BDPGP35PORAR;FR;22136487;;;13/05/2022;1;;1;200;E;D;2
5158504;0292949693;FR;AW265QX;Transport inizan;29068;;CH;;FR;0292949693;;;FR;29AT9;15/11/2021;1;1;;50;S;C;1
5158504;0292949693;FR;AW265QX;Transport inizan;29068;DA;CH;;FR;0292949693;FR;29233017;;;15/11/2021;1;;1;50;E;D;2
5162039;0292953253;FR;4043029;LUI MEME;;CO;25;;FR;0292953253;;;FR;29JTC;22/11/2021;1;1;1;41;S;C;1
5162039;0292953253;FR;4043029;LUI MEME;;DT;25;;FR;0292953253;FR;;FR;29WG1;22/11/2021;1;1;1;41;S;D;2
5189140;BDPGP35PORAR;FR;ES947VC;CHARLES SAS;29302;;CH;;FR;BDPGP35PORAR;;;FR;29NT1;17/12/2021;1;1;;200;S;C;1
5189140;BDPGP35PORAR;FR;ES947VC;CHARLES SAS;29302;DA;CH;;FR;BDPGP35PORAR;FR;22136487;;;17/12/2021;1;;1;200;E;D;2
5200363;0292953253;FR;4043029;LUI MEME;;CO;25;;FR;0292953253;;;FR;29JTC;27/12/2021;1;1;1;215;S;C;1
5200363;0292953253;FR;4043029;LUI MEME;;DT;25;;FR;0292953253;FR;;FR;29WG1;27/12/2021;1;1;1;215;S;D;2
5200733;0292949693;FR;561AQQ29;BIGARD QUIMPERLE;29106;;CH;;FR;0292949693;;;FR;29SPK;29/12/2021;1;1;;150;S;C;1
5200733;0292949693;FR;561AQQ29;BIGARD QUIMPERLE;29106;DA;CH;;FR;0292949693;FR;29233017;;;29/12/2021;1;;1;150;E;D;2
5203428;0292949693;FR;EW888LB;BIGARD QUIMPERLE;29106;;CH;;FR;0292949693;;;FR;29SPK;31/12/2021;1;1;;150;S;C;1
5203428;0292949693;FR;EW888LB;BIGARD QUIMPERLE;29106;DA;CH;;FR;0292949693;FR;29233017;;;31/12/2021;1;;1;150;E;D;2
5210170;BDPGPINDEP;FR;DP826VX;GUEVEL PIERRE TRANSPORTS SARL;29017;;RF;;FR;BDPGPINDEP;;;FR;29BZQ;10/01/2022;1;1;;16;S;C;1
5210170;BDPGPINDEP;FR;DP826VX;GUEVEL PIERRE TRANSPORTS SARL;29017;DA;RF;;FR;BDPGPINDEP;FR;22136487;;;10/01/2022;1;;1;21;E;D;3
5214450;0292949693;FR;ET242SN;CAPITAINE SARL;29008;;CH;;FR;0292949693;;;FR;29SPK;12/01/2022;1;1;;198;S;C;1
5214450;0292949693;FR;ET242SN;CAPITAINE SARL;29008;DA;CH;;FR;0292949693;FR;29233017;;;12/01/2022;1;;1;198;E;D;2
5226913;0292949693;FR;FL218TV;GUEVEL ET FILS;29017;;CH;;FR;0292949693;;;FR;29AT9;25/01/2022;1;1;;100;S;C;1
5226913;0292949693;FR;FL218TV;GUEVEL ET FILS;29017;;CH;;FR;0292949693;;;FR;29WK1;25/01/2022;1;0;;50;S;C;2
5226913;0292949693;FR;FL218TV;GUEVEL ET FILS;29017;DA;CH;;FR;0292949693;FR;29233017;;;25/01/2022;1;;1;150;E;D;3
5239241;BDPGPINDEP;FR;XXXXXXXX;LUI MEME;xxxxxxxx;;CH;;FR;BDPGPINDEP;;;FR;29AZC;27/01/2022;1;0;;2;S;C;2
5239241;BDPGPINDEP;FR;XXXXXXXX;LUI MEME;xxxxxxxx;;CH;;FR;BDPGPINDEP;;;FR;29NT1;27/01/2022;1;0;;2;S;C;3
5239241;BDPGPINDEP;FR;XXXXXXXX;LUI MEME;xxxxxxxx;DA;CH;;FR;BDPGPINDEP;FR;29053024;;;27/01/2022;1;;1;7;E;D;5
5235864;BDPGP35PORAR;FR;FT362KJ;CHARLES SAS;29302;;CH;;FR;BDPGP35PORAR;;;FR;29NT1;04/02/2022;1;1;;200;S;C;1
5235864;BDPGP35PORAR;FR;FT362KJ;CHARLES SAS;29302;DA;CH;;FR;BDPGP35PORAR;FR;22136487;;;04/02/2022;1;;0;198;E;D;2
5235864;BDPGP35PORAR;FR;FT362KJ;CHARLES SAS;29302;DA;MQ;;FR;BDPGP35PORAR;FR;22136487;;;04/02/2022;1;;1;2;E;D;3
5239639;0292949693;FR;AW265QX;Transport inizan;29068;;CH;;FR;0292949693;;;FR;29BZQ;07/02/2022;1;1;;200;S;C;1
5239639;0292949693;FR;AW265QX;Transport inizan;29068;DA;CH;;FR;0292949693;FR;29233017;;;07/02/2022;1;;1;200;E;D;2
5238963;BDPGP35PORAR;FR;DQ350EQ;GUEVEL PIERRE TRANSPORTS SARL;29017;;RF;;FR;BDPGP35PORAR;;;FR;29SPK;08/02/2022;1;1;;20;S;C;1
5238963;BDPGP35PORAR;FR;DQ350EQ;GUEVEL PIERRE TRANSPORTS SARL;29017;DA;RF;;FR;BDPGP35PORAR;FR;22136487;;;08/02/2022;1;;1;20;E;D;2
5248914;0292949693;FR;EW888LB;BIGARD QUIMPERLE;29106;;CH;;FR;0292949693;;;FR;29SPK;16/02/2022;1;1;;151;S;C;1
5248914;0292949693;FR;EW888LB;BIGARD QUIMPERLE;29106;DA;CH;;FR;0292949693;FR;29233017;;;16/02/2022;1;;1;151;E;D;2
5266185;0292949693;FR;ET242SN;CAPITAINE SARL;29008;;CH;;FR;0292949693;;;FR;29SPK;04/03/2022;1;1;;201;S;C;1
5266185;0292949693;FR;ET242SN;CAPITAINE SARL;29008;DA;CH;;FR;0292949693;FR;29233017;;;04/03/2022;1;;1;201;E;D;2
5273901;BDPGPINDEP;FR;XXXXXXXX;LUI MEME;xxxxxxxx;;25;;FR;BDPGPINDEP;;;FR;29NT1;10/03/2022;1;1;;2;S;C;1
5273901;BDPGPINDEP;FR;XXXXXXXX;LUI MEME;xxxxxxxx;;CH;;FR;BDPGPINDEP;;;FR;29NT1;10/03/2022;1;0;;2;S;C;2
5273901;BDPGPINDEP;FR;XXXXXXXX;LUI MEME;xxxxxxxx;DA;25;;FR;BDPGPINDEP;FR;29053024;;;10/03/2022;1;;0;2;E;D;4
5273901;BDPGPINDEP;FR;XXXXXXXX;LUI MEME;xxxxxxxx;DA;CH;;FR;BDPGPINDEP;FR;29053024;;;10/03/2022;1;;1;20;E;D;5
5271333;BDPGP35PORAR;FR;ES368BF;CHARLES SAS;29302;;CH;;FR;BDPGP35PORAR;;;FR;29NT1;11/03/2022;1;1;;200;S;C;1
5271333;BDPGP35PORAR;FR;ES368BF;CHARLES SAS;29302;DA;CH;;FR;BDPGP35PORAR;FR;22136487;;;11/03/2022;1;;0;197;E;D;2
5271333;BDPGP35PORAR;FR;ES368BF;CHARLES SAS;29302;DA;MQ;;FR;BDPGP35PORAR;FR;22136487;;;11/03/2022;1;;1;3;E;D;3
5275495;0292949693;FR;FY529KD;Transport inizan;29068;;CH;;FR;0292949693;;;FR;29BZQ;14/03/2022;1;1;;200;S;C;1
5275495;0292949693;FR;FY529KD;Transport inizan;29068;DA;CH;;FR;0292949693;FR;29233017;;;14/03/2022;1;;0;199;E;D;2
5275495;0292949693;FR;FY529KD;Transport inizan;29068;DA;MO;;FR;0292949693;FR;29233017;;;14/03/2022;1;;1;1;E;D;3
5279375;BDPGP35PORAR;FR;EH622LE;GUEVEL PIERRE TRANSPORTS SARL;29017;;CH;;FR;BDPGP35PORAR;;;FR;29NT1;18/03/2022;1;1;;200;S;C;1
5279375;BDPGP35PORAR;FR;EH622LE;GUEVEL PIERRE TRANSPORTS SARL;29017;DA;CH;;FR;BDPGP35PORAR;FR;22136487;;;18/03/2022;1;;0;197;E;D;2
5279375;BDPGP35PORAR;FR;EH622LE;GUEVEL PIERRE TRANSPORTS SARL;29017;DA;MQ;;FR;BDPGP35PORAR;FR;22136487;;;18/03/2022;1;;1;3;E;D;3
5279419;0292941758;FR;valtra;LUI-MEME;nico;CO;08;;FR;0292941758;;;FR;29BZQ;09/03/2022;1;1;1;210;S;C;1
5279419;0292941758;FR;valtra;LUI-MEME;nico;DT;08;;FR;0292941758;;;FR;29AT9;09/03/2022;1;1;1;210;S;D;2
5285407;0292949693;FR;EW888LB;BIGARD QUIMPERLE;29106;;CH;;FR;0292949693;;;FR;29SPK;22/03/2022;1;1;;150;S;C;1
5285407;0292949693;FR;EW888LB;BIGARD QUIMPERLE;29106;DA;CH;;FR;0292949693;FR;29233017;;;22/03/2022;1;;1;150;E;D;2
5289731;0292949693;FR;EW888LB;BIGARD QUIMPERLE;29106;;CH;;FR;0292949693;;;FR;29SPK;25/03/2022;1;1;;149;S;C;1
5289731;0292949693;FR;EW888LB;BIGARD QUIMPERLE;29106;DA;CH;;FR;0292949693;FR;29233017;;;25/03/2022;1;;1;149;E;D;2
5293460;BDPGP35PORAR;FR;DP826VX;GUEVEL PIERRE TRANSPORTS SARL;29017;;RF;;FR;BDPGP35PORAR;;;FR;29NT1;31/03/2022;1;1;;9;S;C;1
5293460;BDPGP35PORAR;FR;DP826VX;GUEVEL PIERRE TRANSPORTS SARL;29017;DA;MQ;;FR;BDPGP35PORAR;FR;22136487;;;31/03/2022;1;;0;1;E;D;2
5293460;BDPGP35PORAR;FR;DP826VX;GUEVEL PIERRE TRANSPORTS SARL;29017;DA;RF;;FR;BDPGP35PORAR;FR;22136487;;;31/03/2022;1;;1;8;E;D;3
5302960;0292949693;FR;EW734XS;CAPITAINE SARL;29008;;CH;;FR;0292949693;;;FR;29SPK;07/04/2022;1;1;;150;S;C;1
5302960;0292949693;FR;EW734XS;CAPITAINE SARL;29008;DA;CH;;FR;0292949693;FR;29233017;;;07/04/2022;1;;1;150;E;D;2
5321495;0292949693;FR;EA597ZK;Transport inizan;29068;;CH;;FR;0292949693;;;FR;29AT9;25/04/2022;1;1;;150;S;C;1
5321495;0292949693;FR;EA597ZK;Transport inizan;29068;DA;CH;;FR;0292949693;FR;29233017;;;25/04/2022;1;;1;150;E;D;2
5319793;BDPOT29CAPIT;FR;EW734YS;TRANSPORT CAPITAINE;29008;;25;;FR;BDPOT29CAPIT;;;FR;56DTX;25/04/2022;1;1;;314;S;C;1
5319793;BDPOT29CAPIT;FR;EW734YS;TRANSPORT CAPITAINE;29008;DT;25;;FR;BDPOT29CAPIT;;;FR;56BTZ;25/04/2022;1;;1;314;S;D;2
5333155;0292949693;FR;ET242SN;CAPITAINE SARL;29008;;CH;;FR;0292949693;;;FR;29SPK;05/05/2022;1;1;;200;S;C;1
5333155;0292949693;FR;ET242SN;CAPITAINE SARL;29008;DA;CH;;FR;0292949693;FR;29233017;;;05/05/2022;1;;1;200;E;D;2
5144702;BDPGP35PORAR;FR;DP826VX;GUEVEL PIERRE TRANSPORTS SARL;29017;;RF;;FR;BDPGP35PORAR;;;FR;29RW7;02/11/2021;1;1;;6;S;C;1
5144702;BDPGP35PORAR;FR;DP826VX;GUEVEL PIERRE TRANSPORTS SARL;29017;;RF;;FR;BDPGP35PORAR;;;FR;29JTC;02/11/2021;1;0;;7;S;C;2
5144702;BDPGP35PORAR;FR;DP826VX;GUEVEL PIERRE TRANSPORTS SARL;29017;DA;RF;;FR;BDPGP35PORAR;FR;22136487;;;02/11/2021;1;;1;13;E;D;3
5149906;BDPGP35PORAR;FR;FV067YR;CHARLES SAS;29302;;CH;;FR;BDPGP35PORAR;;;FR;29WG1;07/11/2021;1;1;;80;S;C;1
5149906;BDPGP35PORAR;FR;FV067YR;CHARLES SAS;29302;;CH;;FR;BDPGP35PORAR;;;FR;29JTC;07/11/2021;1;0;;120;S;C;2
5149906;BDPGP35PORAR;FR;FV067YR;CHARLES SAS;29302;DA;CH;;FR;BDPGP35PORAR;FR;22136487;;;07/11/2021;1;;1;200;E;D;3
5181474;BDPGPINDEP;FR;XXXXXXXX;LUI MEME;xxxxxxxx;;CH;;FR;BDPGPINDEP;;;FR;29NT1;10/11/2021;1;0;;2;S;C;3
5181474;BDPGPINDEP;FR;XXXXXXXX;LUI MEME;xxxxxxxx;DA;CH;;FR;BDPGPINDEP;FR;29053024;;;10/11/2021;1;;1;5;E;D;4
5158421;0292949693;FR;BL988JJ;GUEVEL ET FILS;29017;;CH;;FR;0292949693;;;FR;29BZQ;15/11/2021;1;1;;200;S;C;1
5158421;0292949693;FR;BL988JJ;GUEVEL ET FILS;29017;;MQ;;FR;0292949693;;;FR;29BZQ;15/11/2021;1;0;;101;S;C;2
5158421;0292949693;FR;BL988JJ;GUEVEL ET FILS;29017;DA;CH;;FR;0292949693;FR;29233017;;;15/11/2021;1;;1;352;E;D;4
5158416;0292949693;FR;ET242SN;CAPITAINE SARL;29008;;CH;;FR;0292949693;;;FR;29FRC;15/11/2021;1;1;;205;S;C;1
5158416;0292949693;FR;ET242SN;CAPITAINE SARL;29008;DA;CH;;FR;0292949693;FR;29233017;;;15/11/2021;1;;1;205;E;D;2
5164555;BDPGP35PORAR;FR;EV077VN;CHARLES SAS;29302;;CH;;FR;BDPGP35PORAR;;;FR;29NT1;23/11/2021;1;1;;200;S;C;1
5164555;BDPGP35PORAR;FR;EV077VN;CHARLES SAS;29302;;MQ;;FR;BDPGP35PORAR;;;FR;29NT1;23/11/2021;1;0;;1;S;C;2
5164555;BDPGP35PORAR;FR;EV077VN;CHARLES SAS;29302;DA;CH;;FR;BDPGP35PORAR;FR;22136487;;;23/11/2021;1;;1;201;E;D;3
5168460;BDPGP35PORAR;FR;FS220LE;GUEPORC SA;2220301;;CH;;FR;BDPGP35PORAR;;;FR;29NT1;26/11/2021;1;1;;200;S;C;1
5168460;BDPGP35PORAR;FR;FS220LE;GUEPORC SA;2220301;DA;CH;;FR;BDPGP35PORAR;FR;22136487;;;26/11/2021;1;;1;200;E;D;2
5170711;0292949693;FR;DD607MN;GUEVEL ET FILS;29017;;CH;;FR;0292949693;;;FR;29SPK;26/11/2021;1;1;;174;S;C;1
5170711;0292949693;FR;DD607MN;GUEVEL ET FILS;29017;DA;CH;;FR;0292949693;FR;29233017;;;26/11/2021;1;;1;174;E;D;2
5170128;BDPGPINDEP;FR;DP826VX;GUEVEL PIERRE TRANSPORTS SARL;29017;;RF;;FR;BDPGPINDEP;;;FR;29BZQ;29/11/2021;1;1;;16;S;C;1
5170128;BDPGPINDEP;FR;DP826VX;GUEVEL PIERRE TRANSPORTS SARL;29017;DA;RF;;FR;BDPGPINDEP;FR;22136487;;;29/11/2021;1;;1;16;E;D;2
5177818;0292949693;FR;EW888LB;BIGARD QUIMPERLE;29106;;CH;;FR;0292949693;;;FR;29SPK;03/12/2021;1;1;;150;S;C;1
5177818;0292949693;FR;EW888LB;BIGARD QUIMPERLE;29106;DA;CH;;FR;0292949693;FR;29233017;;;03/12/2021;1;;1;150;E;D;2
5184765;0292949693;FR;ET242SN;CAPITAINE SARL;29008;;CH;;FR;0292949693;;;FR;29SPK;10/12/2021;1;1;;202;S;C;1
5184765;0292949693;FR;ET242SN;CAPITAINE SARL;29008;DA;CH;;FR;0292949693;FR;29233017;;;10/12/2021;1;;1;202;E;D;2
5192521;BDPOT29TOPIG;FR;EH350FT;STHI;29529;;RP;;FR;BDPOT29TOPIG;;;FR;2239R;17/12/2021;1;1;;61;S;C;1
5192521;BDPOT29TOPIG;FR;EH350FT;STHI;29529;DN;RP;;FR;BDPOT29TOPIG;;;FR;29AXM;17/12/2021;1;;0;12;S;D;4
5192521;BDPOT29TOPIG;FR;EH350FT;STHI;29529;DN;RP;;FR;BDPOT29TOPIG;;;FR;29GTN;17/12/2021;1;;0;14;S;D;5
5192521;BDPOT29TOPIG;FR;EH350FT;STHI;29529;DN;RP;;FR;BDPOT29TOPIG;;;FR;29SW1;17/12/2021;1;;0;13;S;D;6
5192521;BDPOT29TOPIG;FR;EH350FT;STHI;29529;DN;RP;;FR;BDPOT29TOPIG;;;FR;29FRC;17/12/2021;1;;1;6;S;D;7
5190415;BDPGP35PORAR;FR;FT217YW;CHARLES SAS;29302;;CH;;FR;BDPGP35PORAR;;;FR;29WG1;19/12/2021;1;1;;100;S;C;1
5190415;BDPGP35PORAR;FR;FT217YW;CHARLES SAS;29302;DA;CH;;FR;BDPGP35PORAR;FR;22136487;;;19/12/2021;1;;1;100;E;D;2
5215651;BDPOT21MGENE;FR;FR371TT;TRANSPORTS CAPITAINE;29008;;RP;;FR;BDPOT21MGENE;;;FR;372D2;11/01/2022;1;1;;10;S;C;1
5215651;BDPOT21MGENE;FR;FR371TT;TRANSPORTS CAPITAINE;29008;DN;RP;;FR;BDPOT21MGENE;;;FR;56DTX;11/01/2022;1;;1;10;S;D;2
5217112;BDPGPINDEP;FR;XXXXXXXX;LUI MEME;xxxxxxxx;;CH;;FR;BDPGPINDEP;;;FR;29NT1;13/01/2022;1;1;;2;S;C;1
5217112;BDPGPINDEP;FR;XXXXXXXX;LUI MEME;xxxxxxxx;;CH;;FR;BDPGPINDEP;;;FR;29KPC;13/01/2022;1;0;;1;S;C;3
5217112;BDPGPINDEP;FR;XXXXXXXX;LUI MEME;xxxxxxxx;DA;CH;;FR;BDPGPINDEP;FR;29053024;;;13/01/2022;1;;1;5;E;D;4
5215468;BDPOT22HYPOR;FR;FW181QZ;TRANSPORT RAULT;;;RP;;FR;BDPOT22HYPOR;;;FR;41WWJ;13/01/2022;1;1;;120;S;C;1
5215468;BDPOT22HYPOR;FR;FW181QZ;TRANSPORT RAULT;;DN;RP;;FR;BDPOT22HYPOR;;;FR;72MEZ;13/01/2022;1;;0;40;S;D;2
5215468;BDPOT22HYPOR;FR;FW181QZ;TRANSPORT RAULT;;DN;RP;;FR;BDPOT22HYPOR;;;FR;53RXV;13/01/2022;1;;0;4;S;D;3
5215468;BDPOT22HYPOR;FR;FW181QZ;TRANSPORT RAULT;;DN;RP;;FR;BDPOT22HYPOR;;;FR;229G3;13/01/2022;1;;0;4;S;D;4
5215468;BDPOT22HYPOR;FR;FW181QZ;TRANSPORT RAULT;;DN;RP;;FR;BDPOT22HYPOR;;;FR;29JTC;14/01/2022;1;;0;10;S;D;8
5215468;BDPOT22HYPOR;FR;FW181QZ;TRANSPORT RAULT;;DN;RP;;FR;BDPOT22HYPOR;;;FR;29HSK;14/01/2022;1;;0;12;S;D;9
5215468;BDPOT22HYPOR;FR;FW181QZ;TRANSPORT RAULT;;DN;RP;;FR;BDPOT22HYPOR;;;FR;29HQB;14/01/2022;1;;0;18;S;D;10
5215468;BDPOT22HYPOR;FR;FW181QZ;TRANSPORT RAULT;;DN;RP;;FR;BDPOT22HYPOR;;;FR;22GDW;14/01/2022;1;;1;6;S;D;11
5221295;0292949693;FR;ET242SN;CAPITAINE SARL;29008;;CH;;FR;0292949693;;;FR;29SPK;19/01/2022;1;1;;150;S;C;1
5221295;0292949693;FR;ET242SN;CAPITAINE SARL;29008;DA;CH;;FR;0292949693;FR;29233017;;;19/01/2022;1;;1;150;E;D;2
5222634;0292949693;FR;561AQQ29;BIGARD QUIMPERLE;29106;;CH;;FR;0292949693;;;FR;56DTX;19/01/2022;1;1;;142;S;C;1
5222634;0292949693;FR;561AQQ29;BIGARD QUIMPERLE;29106;DA;CH;;FR;0292949693;FR;29233017;;;19/01/2022;1;;1;142;E;D;2
5225982;BDPGP35PORAR;FR;DP826VX;GUEVEL PIERRE TRANSPORTS SARL;29017;;RF;;FR;BDPGP35PORAR;;;FR;29FRC;25/01/2022;1;1;;10;S;C;1
5225982;BDPGP35PORAR;FR;DP826VX;GUEVEL PIERRE TRANSPORTS SARL;29017;DA;RF;;FR;BDPGP35PORAR;FR;29020299;;;25/01/2022;1;;1;10;E;D;2
5235293;0292949693;FR;EW888LB;BIGARD QUIMPERLE;29106;;CH;;FR;0292949693;;;FR;29BZQ;01/02/2022;1;1;;150;S;C;1
5235293;0292949693;FR;EW888LB;BIGARD QUIMPERLE;29106;DA;CH;;FR;0292949693;FR;29233017;;;01/02/2022;1;;1;150;E;D;2
5243493;0292949693;FR;EW888LB;BIGARD QUIMPERLE;29106;;CH;;FR;0292949693;;;FR;29SPK;10/02/2022;1;1;;200;S;C;1
5243493;0292949693;FR;EW888LB;BIGARD QUIMPERLE;29106;DA;CH;;FR;0292949693;FR;29233017;;;10/02/2022;1;;1;200;E;D;2
5246500;0292949693;FR;DE045XG;Transport inizan;29068;;CH;;FR;0292949693;;;FR;29AT9;14/02/2022;1;1;;100;S;C;1
5246500;0292949693;FR;DE045XG;Transport inizan;29068;;CH;;FR;0292949693;;;FR;29WK1;14/02/2022;1;0;;100;S;C;2
5246500;0292949693;FR;DE045XG;Transport inizan;29068;DA;CH;;FR;0292949693;FR;29233017;;;14/02/2022;1;;1;200;E;D;3
5247607;0292949693;FR;EW888LB;BIGARD QUIMPERLE;29106;;CH;;FR;0292949693;;;FR;56DTX;14/02/2022;1;1;;150;S;C;1
5247607;0292949693;FR;EW888LB;BIGARD QUIMPERLE;29106;DA;CH;;FR;0292949693;FR;29233017;;;14/02/2022;1;;1;150;E;D;2
5254087;BDPOT29TOPIG;FR;FX203LT;INIZAN (20,30 ?);29068;;RP;;FR;BDPOT29TOPIG;;;FR;56KUZ;18/02/2022;1;1;;70;S;C;1
5254087;BDPOT29TOPIG;FR;FX203LT;INIZAN (20,30 ?);29068;DN;RP;;FR;BDPOT29TOPIG;;;FR;29NT1;18/02/2022;1;;0;16;S;D;5
5253272;0292949693;FR;FQ351CR;Transport inizan;29068;;CH;;FR;0292949693;;;FR;29BZQ;21/02/2022;1;1;;150;S;C;1
5253272;0292949693;FR;FQ351CR;Transport inizan;29068;;CH;;FR;0292949693;;;FR;29WK1;21/02/2022;1;0;;50;S;C;2
5253272;0292949693;FR;FQ351CR;Transport inizan;29068;DA;CH;;FR;0292949693;FR;29233017;;;21/02/2022;1;;1;200;E;D;3
5253257;0292949693;FR;DX588JX;BIGARD QUIMPERLE;29106;;CH;;FR;0292949693;;;FR;56DTX;21/02/2022;1;1;;121;S;C;1
5253257;0292949693;FR;DX588JX;BIGARD QUIMPERLE;29106;DA;CH;;FR;0292949693;FR;29233017;;;21/02/2022;1;;1;121;E;D;2
5262557;0292949693;FR;EW734XS;CAPITAINE SARL;29008;;CH;;FR;0292949693;;;FR;29WK1;02/03/2022;1;1;;150;S;C;1
5262557;0292949693;FR;EW734XS;CAPITAINE SARL;29008;DA;CH;;FR;0292949693;FR;29233017;;;02/03/2022;1;;1;150;E;D;2
5269963;BDPGP35PORAR;FR;DQ350EQ;GUEVEL PIERRE TRANSPORTS SARL;29017;;RF;;FR;BDPGP35PORAR;;;FR;29VY1;10/03/2022;1;1;;5;S;C;1
5269963;BDPGP35PORAR;FR;DQ350EQ;GUEVEL PIERRE TRANSPORTS SARL;29017;;RF;;FR;BDPGP35PORAR;;;FR;29JTC;10/03/2022;1;0;;7;S;C;2
5269963;BDPGP35PORAR;FR;DQ350EQ;GUEVEL PIERRE TRANSPORTS SARL;29017;DA;RF;;FR;BDPGP35PORAR;FR;22136487;;;10/03/2022;1;;1;12;E;D;3
5283875;0292949693;FR;EA597ZK;Transport inizan;29068;;CH;;FR;0292949693;;;FR;29BZQ;21/03/2022;1;1;;200;S;C;1
5283875;0292949693;FR;EA597ZK;Transport inizan;29068;DA;CH;;FR;0292949693;FR;29233017;;;21/03/2022;1;;0;199;E;D;2
5283875;0292949693;FR;EA597ZK;Transport inizan;29068;DA;MQ;;FR;0292949693;FR;29233017;;;21/03/2022;1;;1;1;E;D;3
5291186;0292949693;FR;ET242SN;CAPITAINE SARL;29008;;CH;;FR;0292949693;;;FR;29FRC;28/03/2022;1;1;;205;S;C;1
5291186;0292949693;FR;ET242SN;CAPITAINE SARL;29008;DA;CH;;FR;0292949693;FR;29233017;;;28/03/2022;1;;1;205;E;D;2
5291237;0292949693;FR;FY529KD;Transport inizan;29068;;CH;;FR;0292949693;;;FR;29BZQ;28/03/2022;1;1;;200;S;C;1
5291237;0292949693;FR;FY529KD;Transport inizan;29068;DA;CH;;FR;0292949693;FR;29233017;;;28/03/2022;1;;1;200;E;D;2
5301801;BDPGPINDEP;FR;XXXXXXXX;LUI MEME;xxxxxxxx;;25;;FR;BDPGPINDEP;;;FR;29NT1;07/04/2022;1;1;;1;S;C;1
5301801;BDPGPINDEP;FR;XXXXXXXX;LUI MEME;xxxxxxxx;;CH;;FR;BDPGPINDEP;;;FR;29NT1;07/04/2022;1;0;;3;S;C;2
5301801;BDPGPINDEP;FR;XXXXXXXX;LUI MEME;xxxxxxxx;;CH;;FR;BDPGPINDEP;;;FR;29PR5;07/04/2022;1;0;;2;S;C;3
5301801;BDPGPINDEP;FR;XXXXXXXX;LUI MEME;xxxxxxxx;DA;25;;FR;BDPGPINDEP;FR;29053024;;;07/04/2022;1;;0;1;E;D;4
5301801;BDPGPINDEP;FR;XXXXXXXX;LUI MEME;xxxxxxxx;DA;CH;;FR;BDPGPINDEP;FR;29053024;;;07/04/2022;1;;1;5;E;D;5
5307457;BDPGP35PORAR;FR;FT362KJ;CHARLES SAS;29302;;CH;;FR;BDPGP35PORAR;;;FR;29NT1;14/04/2022;1;1;;200;S;C;1
5307457;BDPGP35PORAR;FR;FT362KJ;CHARLES SAS;29302;DA;CH;;FR;BDPGP35PORAR;FR;22136487;;;14/04/2022;1;;1;200;E;D;2
5314207;BDPGP35PORAR;FR;DP826VX;GUEVEL PIERRE TRANSPORTS SARL;29017;;RF;;FR;BDPGP35PORAR;;;FR;29ZWC;21/04/2022;1;1;;5;S;C;1
5314207;BDPGP35PORAR;FR;DP826VX;GUEVEL PIERRE TRANSPORTS SARL;29017;;RF;;FR;BDPGP35PORAR;;;FR;29JTC;21/04/2022;1;0;;7;S;C;2
5314207;BDPGP35PORAR;FR;DP826VX;GUEVEL PIERRE TRANSPORTS SARL;29017;;RF;;FR;BDPGP35PORAR;;;FR;29VY1;21/04/2022;1;0;;6;S;C;3
5314207;BDPGP35PORAR;FR;DP826VX;GUEVEL PIERRE TRANSPORTS SARL;29017;DA;RF;;FR;BDPGP35PORAR;FR;22136487;;;21/04/2022;1;;1;18;E;D;4
5322802;0292949693;FR;561AQQ29;BIGARD QUIMPERLE;29106;;CH;;FR;0292949693;;;FR;56DTX;26/04/2022;1;1;;107;S;C;1
5322802;0292949693;FR;561AQQ29;BIGARD QUIMPERLE;29106;DA;CH;;FR;0292949693;FR;29233017;;;26/04/2022;1;;1;107;E;D;2
5154520;BDPGP35PORAR;FR;ES368BF;CHARLES SAS;29302;;CH;;FR;BDPGP35PORAR;;;FR;29NT1;12/11/2021;1;1;;201;S;C;1
5154520;BDPGP35PORAR;FR;ES368BF;CHARLES SAS;29302;DA;CH;;FR;BDPGP35PORAR;FR;22136487;;;12/11/2021;1;;1;201;E;D;2
5185942;0292949693;FR;DQ350EQ;GUEVEL ET FILS;29017;;CH;;FR;0292949693;;;FR;29BZQ;13/12/2021;1;1;;250;S;C;1
5185942;0292949693;FR;DQ350EQ;GUEVEL ET FILS;29017;;CH;;FR;0292949693;;;FR;29AT9;13/12/2021;1;0;;100;S;C;2
5185942;0292949693;FR;DQ350EQ;GUEVEL ET FILS;29017;DA;CH;;FR;0292949693;FR;29233017;;;13/12/2021;1;;1;350;E;D;3
5186632;BDPGP35PORAR;FR;DQ350EQ;GUEVEL PIERRE TRANSPORTS SARL;29017;;RF;;FR;BDPGP35PORAR;;;FR;29RW7;15/12/2021;1;1;;5;S;C;1
5186632;BDPGP35PORAR;FR;DQ350EQ;GUEVEL PIERRE TRANSPORTS SARL;29017;;RF;;FR;BDPGP35PORAR;;;FR;29JTC;15/12/2021;1;0;;4;S;C;2
5186632;BDPGP35PORAR;FR;DQ350EQ;GUEVEL PIERRE TRANSPORTS SARL;29017;DA;RF;;FR;BDPGP35PORAR;FR;22136487;;;15/12/2021;1;;1;9;E;D;3
5194732;BDPGPINDEP;FR;XXXXXXXX;LUI MEME;xxxxxxxx;;CH;;FR;BDPGPINDEP;;;FR;29NT1;16/12/2021;1;1;;1;S;C;1
5194732;BDPGPINDEP;FR;XXXXXXXX;LUI MEME;xxxxxxxx;DA;CH;;FR;BDPGPINDEP;FR;29053024;;;16/12/2021;1;;1;5;E;D;3