{
    "name": "N\u00b0 Bon",
    "flow_date": "Date",
    "actor_sender": {
        "fixed": "39198157800035"
    },
    "site_sender": "Code adh\u00e9rent",
    "tool_sender": "Code adh\u00e9rent",
    "product": "Code produit",
    "quantity": "Poids Net",
    "actor_receiver": {
        "fixed": "39198157800035"
    },
    "site_receiver": "Code acteur dep\u00f4t",
    "tool_receiver": "Code acteur dep\u00f4t",
    "specification": null,
    "specific_data": {
        "Ann\u00e9e de r\u00e9colte": "Ann\u00e9e de r\u00e9colte",
        "Type de transfert": "Type de transfert"
    },
    "csv_parameters": {
        "delimiter": ";",
        "decimal": "."
    },
    "db_request_mapping": {
        "site_sender": {
            "matching_key": "internal_code",
            "owner": "actor_sender"
        },
        "tool_sender": {
            "matching_key": "internal_code",
            "owner": "actor_sender",
            "site": "site_sender"
        },
        "product": {
            "matching_key": "internal_code",
            "owner": "actor_sender"
        },
        "actor_sender": {
            "matching_key": "siret_number"
        },
        "actor_receiver": {
            "matching_key": "siret_number"
        },
        "site_receiver": {
            "matching_key": "internal_code",
            "owner": "actor_sender"
        },
        "tool_receiver": {
            "matching_key": "internal_code",
            "owner": "actor_sender",
            "site": "site_receiver"
        }
    },
    "transformations": [
        {
            "transformation": "unwind",
            "columns": [
                "N\u00b0 Bon"
            ],
            "delimiter": "/"
        }
    ],
    "extra_parameters": {
        "date_format": "%d/%m/%Y",
        "ordering": {
            "by": "flow_date",
            "ascending": "True"
        },
        "focus_on": {
            "Type de transfert": "transfert",
            "Sens": "e"
        }
    }
}